[gd_scene load_steps=3 format=2]

[ext_resource path="res://src/objects/path/spawner_path.tscn" type="PackedScene" id=1]
[ext_resource path="res://src/objects/path/car_path.gd" type="Script" id=2]

[node name="CarPath" groups=[
"car_paths",
] instance=ExtResource( 1 )]
script = ExtResource( 2 )
spawn_frequency_seconds = 10
