[gd_scene load_steps=2 format=2]

[sub_resource type="BoxShape" id=1]
extents = Vector3( 5, 1, 1 )

[node name="Goal" type="Area"]
transform = Transform( 1, 0, 0, 0, 1, 0, 0, 0, 1, 0, 1, 0 )
monitorable = false
collision_layer = 8
collision_mask = 2

[node name="CollisionShape" type="CollisionShape" parent="."]
shape = SubResource( 1 )
