[gd_scene load_steps=4 format=2]

[ext_resource path="res://models/environment/Buildings/House2/House2_Material.tres" type="Material" id=1]

[sub_resource type="ArrayMesh" id=1]
resource_name = "House2"
surfaces/0 = {
"aabb": AABB( -9.91762, -0.0291748, -7.17363, 19.8352, 18.3778, 14.3473 ),
"array_data": PoolByteArray( 53, 167, 23, 65, 84, 149, 15, 65, 54, 105, 166, 192, 127, 0, 0, 0, 0, 129, 0, 127, 226, 50, 202, 35, 53, 167, 23, 65, 84, 149, 15, 65, 54, 105, 166, 64, 127, 0, 0, 0, 0, 129, 0, 127, 226, 50, 250, 50, 53, 167, 23, 65, 63, 161, 151, 64, 54, 105, 166, 64, 127, 0, 0, 0, 0, 129, 0, 127, 195, 52, 250, 50, 94, 81, 173, 191, 0, 0, 239, 188, 54, 105, 166, 64, 0, 129, 0, 0, 0, 0, 127, 127, 55, 57, 22, 58, 53, 167, 23, 193, 0, 0, 239, 188, 54, 105, 166, 64, 0, 129, 0, 0, 0, 0, 127, 127, 55, 57, 209, 56, 53, 167, 23, 193, 0, 0, 239, 188, 54, 105, 166, 192, 0, 129, 0, 0, 0, 0, 127, 127, 136, 55, 209, 56, 53, 167, 23, 193, 84, 149, 15, 65, 54, 105, 166, 64, 0, 0, 0, 0, 127, 0, 0, 127, 0, 0, 0, 60, 53, 167, 23, 193, 84, 149, 15, 65, 34, 149, 208, 192, 0, 0, 0, 0, 127, 0, 0, 127, 0, 0, 0, 60, 53, 167, 23, 193, 84, 149, 15, 65, 54, 105, 166, 192, 0, 0, 0, 0, 127, 0, 0, 127, 0, 0, 0, 60, 53, 167, 23, 65, 84, 149, 15, 65, 54, 105, 166, 192, 0, 0, 0, 0, 127, 0, 0, 127, 0, 0, 0, 60, 53, 167, 23, 65, 84, 149, 15, 65, 34, 149, 208, 64, 0, 0, 0, 0, 127, 0, 0, 127, 0, 0, 0, 60, 53, 167, 23, 65, 84, 149, 15, 65, 54, 105, 166, 64, 0, 0, 0, 0, 127, 0, 0, 127, 0, 0, 0, 60, 146, 174, 30, 193, 60, 226, 120, 65, 0, 0, 0, 128, 129, 0, 0, 0, 0, 129, 0, 127, 234, 36, 78, 54, 146, 174, 30, 193, 76, 241, 127, 65, 0, 0, 0, 128, 129, 0, 0, 0, 0, 129, 0, 127, 108, 33, 78, 54, 146, 174, 30, 193, 84, 149, 15, 65, 34, 149, 208, 192, 129, 0, 0, 0, 0, 130, 0, 127, 184, 48, 43, 56, 62, 176, 226, 64, 84, 149, 15, 65, 34, 149, 208, 64, 0, 0, 0, 0, 127, 0, 0, 127, 0, 0, 0, 60, 185, 165, 216, 64, 84, 149, 15, 65, 34, 149, 208, 64, 0, 0, 0, 0, 127, 0, 0, 127, 0, 0, 0, 60, 53, 167, 23, 65, 84, 149, 15, 65, 34, 149, 208, 64, 127, 0, 0, 0, 0, 129, 0, 127, 147, 59, 130, 57, 53, 167, 23, 65, 84, 149, 15, 65, 34, 149, 208, 192, 127, 0, 0, 0, 0, 129, 0, 127, 147, 59, 242, 54, 53, 167, 23, 65, 60, 226, 120, 65, 0, 0, 0, 128, 127, 0, 0, 0, 0, 129, 0, 127, 140, 58, 125, 56, 53, 167, 23, 193, 84, 149, 15, 65, 34, 149, 208, 192, 129, 0, 0, 0, 0, 129, 0, 127, 147, 59, 216, 59, 53, 167, 23, 193, 84, 149, 15, 65, 34, 149, 208, 64, 129, 0, 0, 0, 0, 129, 0, 127, 147, 59, 208, 57, 53, 167, 23, 193, 60, 226, 120, 65, 0, 0, 0, 128, 129, 0, 0, 0, 0, 129, 0, 127, 140, 58, 212, 58, 202, 89, 181, 191, 84, 149, 15, 65, 34, 149, 208, 192, 0, 136, 40, 0, 0, 40, 120, 127, 87, 58, 50, 53, 108, 125, 227, 191, 84, 149, 15, 65, 34, 149, 208, 192, 0, 136, 40, 0, 0, 40, 120, 127, 87, 58, 21, 53, 146, 174, 30, 193, 204, 13, 12, 65, 95, 142, 229, 192, 0, 136, 40, 0, 0, 40, 120, 127, 60, 58, 21, 49, 62, 176, 226, 192, 84, 149, 15, 65, 34, 149, 208, 192, 0, 0, 0, 0, 127, 0, 0, 127, 0, 0, 0, 60, 185, 165, 216, 192, 84, 149, 15, 65, 34, 149, 208, 192, 0, 0, 0, 0, 127, 0, 0, 127, 0, 0, 0, 60, 53, 167, 23, 193, 60, 226, 120, 65, 0, 0, 0, 128, 0, 167, 90, 0, 129, 0, 0, 127, 39, 58, 126, 56, 146, 174, 30, 193, 84, 149, 15, 65, 34, 149, 208, 192, 0, 167, 90, 0, 129, 0, 0, 127, 56, 58, 64, 54, 53, 167, 23, 193, 84, 149, 15, 65, 34, 149, 208, 192, 0, 167, 90, 0, 129, 0, 0, 127, 39, 58, 64, 54, 62, 176, 226, 64, 84, 149, 15, 65, 34, 149, 208, 64, 0, 136, 216, 0, 0, 216, 120, 127, 91, 58, 217, 55, 146, 174, 30, 65, 204, 13, 12, 65, 95, 142, 229, 64, 0, 136, 216, 0, 0, 216, 120, 127, 119, 58, 93, 56, 88, 3, 136, 64, 84, 149, 15, 65, 34, 149, 208, 64, 0, 136, 216, 0, 0, 216, 120, 127, 91, 58, 246, 54, 53, 167, 23, 65, 84, 149, 15, 65, 34, 149, 208, 192, 0, 0, 0, 0, 127, 0, 0, 127, 0, 0, 0, 60, 62, 176, 226, 64, 84, 149, 15, 65, 34, 149, 208, 192, 0, 0, 0, 0, 127, 0, 0, 127, 0, 0, 0, 60, 146, 174, 30, 65, 84, 149, 15, 65, 34, 149, 208, 192, 0, 0, 0, 0, 127, 0, 0, 127, 0, 0, 0, 60, 186, 165, 216, 64, 84, 149, 15, 65, 34, 149, 208, 192, 0, 0, 0, 0, 127, 0, 0, 127, 0, 0, 0, 60, 88, 3, 136, 64, 84, 149, 15, 65, 34, 149, 208, 192, 0, 0, 0, 0, 127, 0, 0, 127, 0, 0, 0, 60, 9, 253, 129, 64, 84, 149, 15, 65, 34, 149, 208, 192, 0, 0, 0, 0, 127, 0, 0, 127, 0, 0, 0, 60, 204, 89, 181, 63, 84, 149, 15, 65, 34, 149, 208, 192, 0, 0, 0, 0, 127, 0, 0, 127, 0, 0, 0, 60, 94, 81, 173, 191, 84, 149, 15, 65, 34, 149, 208, 192, 0, 0, 0, 0, 127, 0, 0, 127, 0, 0, 0, 60, 100, 81, 173, 63, 84, 149, 15, 65, 34, 149, 208, 192, 0, 0, 0, 0, 127, 0, 0, 127, 0, 0, 0, 60, 8, 253, 129, 192, 84, 149, 15, 65, 34, 149, 208, 192, 0, 0, 0, 0, 127, 0, 0, 127, 0, 0, 0, 60, 108, 125, 227, 191, 84, 149, 15, 65, 34, 149, 208, 192, 0, 0, 0, 0, 127, 0, 0, 127, 0, 0, 0, 60, 208, 105, 217, 191, 84, 149, 15, 65, 34, 149, 208, 192, 0, 0, 0, 0, 127, 0, 0, 127, 0, 0, 0, 60, 88, 3, 136, 192, 84, 149, 15, 65, 34, 149, 208, 192, 0, 0, 0, 0, 127, 0, 0, 127, 0, 0, 0, 60, 53, 167, 23, 193, 84, 149, 15, 65, 34, 149, 208, 64, 0, 0, 0, 0, 127, 0, 0, 127, 0, 0, 0, 60, 62, 176, 226, 192, 84, 149, 15, 65, 34, 149, 208, 64, 0, 0, 0, 0, 127, 0, 0, 127, 0, 0, 0, 60, 146, 174, 30, 193, 84, 149, 15, 65, 34, 149, 208, 64, 0, 0, 0, 0, 127, 0, 0, 127, 0, 0, 0, 60, 186, 165, 216, 192, 84, 149, 15, 65, 34, 149, 208, 64, 0, 0, 0, 0, 127, 0, 0, 127, 0, 0, 0, 60, 88, 3, 136, 192, 84, 149, 15, 65, 34, 149, 208, 64, 0, 0, 0, 0, 127, 0, 0, 127, 0, 0, 0, 60, 213, 105, 217, 191, 84, 149, 15, 65, 34, 149, 208, 64, 0, 0, 0, 0, 127, 0, 0, 127, 0, 0, 0, 60, 204, 89, 181, 191, 84, 149, 15, 65, 34, 149, 208, 64, 0, 0, 0, 0, 127, 0, 0, 127, 0, 0, 0, 60, 110, 125, 227, 191, 84, 149, 15, 65, 34, 149, 208, 64, 0, 0, 0, 0, 127, 0, 0, 127, 0, 0, 0, 60, 94, 81, 173, 63, 84, 149, 15, 65, 34, 149, 208, 64, 0, 0, 0, 0, 127, 0, 0, 127, 0, 0, 0, 60, 100, 81, 173, 191, 84, 149, 15, 65, 34, 149, 208, 64, 0, 0, 0, 0, 127, 0, 0, 127, 0, 0, 0, 60, 8, 253, 129, 64, 84, 149, 15, 65, 34, 149, 208, 64, 0, 0, 0, 0, 127, 0, 0, 127, 0, 0, 0, 60, 202, 89, 181, 63, 84, 149, 15, 65, 34, 149, 208, 64, 0, 0, 0, 0, 127, 0, 0, 127, 0, 0, 0, 60, 88, 3, 136, 64, 84, 149, 15, 65, 34, 149, 208, 64, 0, 0, 0, 0, 127, 0, 0, 127, 0, 0, 0, 60, 132, 164, 212, 192, 60, 206, 124, 64, 224, 253, 162, 64, 0, 127, 0, 0, 0, 0, 129, 127, 218, 57, 67, 57, 132, 164, 212, 192, 60, 206, 124, 64, 28, 83, 169, 64, 0, 127, 0, 0, 0, 0, 129, 127, 212, 57, 67, 57, 8, 253, 129, 192, 60, 206, 124, 64, 28, 83, 169, 64, 0, 127, 0, 0, 0, 0, 129, 127, 212, 57, 170, 57, 34, 212, 211, 64, 222, 156, 213, 64, 28, 83, 169, 64, 129, 0, 0, 0, 0, 0, 130, 127, 53, 55, 5, 54, 35, 212, 211, 64, 254, 110, 126, 64, 204, 224, 160, 64, 129, 0, 0, 0, 0, 0, 130, 127, 74, 55, 45, 53, 35, 212, 211, 64, 254, 110, 126, 64, 28, 83, 169, 64, 129, 0, 0, 0, 0, 0, 129, 127, 53, 55, 45, 53, 132, 164, 212, 192, 63, 109, 214, 64, 28, 83, 169, 64, 127, 0, 0, 0, 0, 0, 129, 127, 91, 57, 23, 54, 132, 164, 212, 192, 60, 206, 124, 64, 224, 253, 162, 64, 127, 0, 0, 0, 0, 0, 129, 127, 99, 57, 243, 54, 132, 164, 212, 192, 63, 109, 214, 64, 224, 253, 162, 64, 127, 0, 0, 0, 0, 0, 129, 127, 99, 57, 23, 54, 9, 253, 129, 64, 84, 149, 15, 65, 34, 149, 208, 192, 0, 130, 0, 0, 0, 0, 127, 127, 8, 57, 16, 55, 186, 165, 216, 64, 84, 149, 15, 65, 34, 149, 208, 192, 0, 130, 0, 0, 0, 0, 127, 127, 8, 57, 232, 55, 53, 167, 23, 65, 84, 149, 15, 65, 54, 105, 166, 192, 0, 130, 0, 0, 0, 0, 127, 127, 55, 57, 96, 56, 100, 81, 173, 191, 84, 149, 15, 65, 54, 105, 166, 64, 0, 129, 0, 0, 0, 0, 126, 127, 209, 56, 95, 53, 100, 81, 173, 191, 84, 149, 15, 65, 34, 149, 208, 64, 0, 129, 0, 0, 0, 0, 127, 127, 0, 57, 95, 53, 213, 105, 217, 191, 84, 149, 15, 65, 34, 149, 208, 64, 0, 129, 0, 0, 0, 0, 127, 127, 0, 57, 67, 53, 53, 167, 23, 65, 84, 149, 15, 65, 54, 105, 166, 192, 0, 0, 129, 0, 0, 129, 0, 127, 119, 55, 96, 56, 53, 167, 23, 193, 0, 0, 239, 188, 54, 105, 166, 192, 0, 0, 129, 0, 0, 129, 0, 127, 187, 56, 172, 49, 53, 167, 23, 193, 84, 149, 15, 65, 54, 105, 166, 192, 0, 0, 129, 0, 0, 129, 0, 127, 119, 55, 172, 49, 159, 206, 134, 64, 222, 156, 213, 64, 204, 224, 160, 64, 127, 0, 0, 0, 0, 0, 126, 127, 79, 57, 243, 54, 159, 206, 134, 64, 254, 110, 126, 64, 28, 83, 169, 64, 127, 0, 0, 0, 0, 0, 126, 127, 90, 57, 27, 54, 159, 206, 134, 64, 254, 110, 126, 64, 204, 224, 160, 64, 127, 0, 0, 0, 0, 0, 127, 127, 79, 57, 27, 54, 25, 240, 154, 191, 237, 8, 147, 64, 54, 105, 166, 64, 0, 129, 0, 0, 0, 0, 127, 127, 102, 57, 238, 55, 28, 240, 154, 63, 237, 8, 147, 64, 209, 210, 160, 64, 0, 129, 0, 0, 0, 0, 127, 127, 96, 57, 88, 56, 28, 240, 154, 63, 237, 8, 147, 64, 54, 105, 166, 64, 0, 129, 0, 0, 0, 0, 127, 127, 102, 57, 88, 56, 53, 167, 23, 193, 204, 169, 247, 64, 54, 105, 166, 64, 0, 0, 127, 0, 0, 127, 0, 127, 66, 58, 209, 56, 53, 167, 23, 193, 0, 0, 239, 188, 54, 105, 166, 64, 0, 0, 127, 0, 0, 127, 0, 127, 102, 57, 209, 56, 186, 165, 216, 192, 208, 203, 116, 64, 54, 105, 166, 64, 0, 0, 127, 0, 0, 127, 0, 127, 211, 57, 62, 57, 62, 176, 226, 64, 76, 241, 127, 65, 0, 0, 0, 128, 0, 89, 166, 0, 0, 90, 89, 127, 214, 50, 29, 57, 88, 3, 136, 64, 212, 3, 114, 65, 202, 180, 92, 191, 0, 89, 166, 0, 0, 90, 89, 127, 19, 50, 142, 57, 204, 89, 181, 63, 76, 241, 127, 65, 0, 0, 0, 128, 0, 89, 166, 0, 0, 90, 89, 127, 214, 50, 255, 57, 53, 167, 23, 65, 63, 161, 151, 64, 54, 105, 166, 64, 0, 0, 127, 0, 0, 127, 0, 127, 237, 57, 199, 59, 53, 167, 23, 65, 84, 149, 15, 65, 54, 105, 166, 64, 0, 0, 127, 0, 0, 127, 0, 127, 101, 58, 199, 59, 185, 165, 216, 64, 117, 110, 218, 64, 54, 105, 166, 64, 0, 0, 127, 0, 0, 127, 0, 127, 41, 58, 91, 59, 88, 3, 136, 64, 225, 22, 93, 65, 166, 19, 10, 192, 0, 0, 129, 0, 0, 127, 0, 127, 237, 48, 142, 57, 62, 176, 226, 64, 155, 187, 141, 65, 166, 19, 10, 192, 0, 0, 129, 0, 0, 127, 0, 127, 167, 50, 29, 57, 62, 176, 226, 64, 225, 22, 93, 65, 166, 19, 10, 192, 0, 0, 129, 0, 0, 127, 0, 127, 237, 48, 29, 57, 88, 3, 136, 64, 212, 3, 114, 65, 202, 180, 92, 191, 129, 0, 0, 0, 0, 0, 127, 127, 73, 55, 48, 56, 88, 3, 136, 64, 155, 187, 141, 65, 166, 19, 10, 192, 129, 0, 0, 0, 0, 0, 127, 127, 225, 54, 146, 55, 88, 3, 136, 64, 225, 22, 93, 65, 166, 19, 10, 192, 129, 0, 0, 0, 0, 0, 127, 127, 225, 54, 101, 56, 62, 176, 226, 64, 212, 3, 114, 65, 202, 180, 92, 191, 127, 0, 0, 0, 0, 0, 127, 127, 73, 55, 149, 54, 62, 176, 226, 64, 155, 187, 141, 65, 166, 19, 10, 192, 127, 0, 0, 0, 0, 0, 127, 127, 225, 54, 100, 55, 62, 176, 226, 64, 155, 187, 141, 65, 202, 180, 92, 191, 127, 0, 0, 0, 0, 0, 127, 127, 73, 55, 100, 55, 62, 176, 226, 64, 212, 3, 114, 65, 202, 180, 92, 191, 0, 0, 127, 0, 0, 126, 0, 127, 61, 53, 21, 55, 88, 3, 136, 64, 155, 187, 141, 65, 202, 180, 92, 191, 0, 0, 127, 0, 0, 126, 0, 127, 208, 53, 51, 54, 88, 3, 136, 64, 212, 3, 114, 65, 202, 180, 92, 191, 0, 0, 127, 0, 0, 127, 0, 127, 61, 53, 51, 54, 201, 244, 126, 64, 155, 187, 141, 65, 63, 225, 17, 192, 0, 0, 129, 0, 0, 127, 0, 127, 59, 57, 247, 53, 50, 57, 235, 64, 22, 202, 146, 65, 63, 225, 17, 192, 0, 0, 129, 0, 0, 127, 0, 127, 77, 57, 234, 52, 50, 57, 235, 64, 155, 187, 141, 65, 63, 225, 17, 192, 0, 0, 129, 0, 0, 127, 0, 127, 59, 57, 234, 52, 62, 176, 226, 64, 155, 187, 141, 65, 202, 180, 92, 191, 0, 130, 0, 0, 0, 0, 127, 127, 83, 54, 83, 54, 201, 244, 126, 64, 155, 187, 141, 65, 103, 126, 61, 191, 0, 130, 0, 0, 0, 0, 127, 127, 92, 54, 91, 53, 88, 3, 136, 64, 155, 187, 141, 65, 202, 180, 92, 191, 0, 130, 0, 0, 0, 0, 127, 127, 83, 54, 112, 53, 132, 164, 212, 192, 63, 109, 214, 64, 224, 253, 162, 64, 0, 130, 0, 0, 0, 0, 127, 127, 202, 54, 67, 55, 170, 110, 233, 191, 63, 109, 214, 64, 28, 83, 169, 64, 0, 130, 0, 0, 0, 0, 127, 127, 217, 54, 98, 56, 132, 164, 212, 192, 63, 109, 214, 64, 28, 83, 169, 64, 0, 130, 0, 0, 0, 0, 127, 127, 217, 54, 67, 55, 50, 57, 235, 64, 155, 187, 141, 65, 63, 225, 17, 192, 126, 0, 0, 0, 0, 129, 0, 127, 213, 54, 53, 53, 50, 57, 235, 64, 22, 202, 146, 65, 103, 126, 61, 191, 126, 0, 0, 0, 0, 129, 0, 127, 162, 54, 176, 53, 50, 57, 235, 64, 155, 187, 141, 65, 103, 126, 61, 191, 126, 0, 0, 0, 0, 129, 0, 127, 213, 54, 176, 53, 50, 57, 235, 64, 155, 187, 141, 65, 103, 126, 61, 191, 0, 0, 127, 0, 0, 127, 0, 127, 57, 54, 102, 56, 201, 244, 126, 64, 22, 202, 146, 65, 103, 126, 61, 191, 0, 0, 127, 0, 0, 127, 0, 127, 93, 54, 192, 55, 201, 244, 126, 64, 155, 187, 141, 65, 103, 126, 61, 191, 0, 0, 127, 0, 0, 127, 0, 127, 57, 54, 192, 55, 201, 244, 126, 64, 155, 187, 141, 65, 103, 126, 61, 191, 130, 0, 0, 0, 0, 129, 0, 127, 155, 54, 53, 53, 201, 244, 126, 64, 22, 202, 146, 65, 63, 225, 17, 192, 130, 0, 0, 0, 0, 129, 0, 127, 104, 54, 176, 53, 201, 244, 126, 64, 155, 187, 141, 65, 63, 225, 17, 192, 130, 0, 0, 0, 0, 129, 0, 127, 155, 54, 176, 53, 236, 50, 147, 64, 22, 202, 146, 65, 59, 179, 255, 191, 0, 0, 127, 0, 0, 127, 0, 127, 164, 54, 241, 55, 170, 128, 215, 64, 188, 205, 129, 65, 59, 179, 255, 191, 0, 0, 127, 0, 0, 127, 0, 127, 43, 54, 78, 56, 170, 128, 215, 64, 22, 202, 146, 65, 59, 179, 255, 191, 0, 0, 127, 0, 0, 127, 0, 127, 164, 54, 78, 56, 159, 206, 134, 64, 222, 156, 213, 64, 28, 83, 169, 64, 0, 129, 0, 0, 0, 0, 127, 127, 95, 57, 239, 55, 34, 212, 211, 64, 222, 156, 213, 64, 204, 224, 160, 64, 0, 129, 0, 0, 0, 0, 127, 127, 85, 57, 88, 56, 34, 212, 211, 64, 222, 156, 213, 64, 28, 83, 169, 64, 0, 129, 0, 0, 0, 0, 127, 127, 95, 57, 88, 56, 201, 244, 126, 64, 22, 202, 146, 65, 63, 225, 17, 192, 0, 126, 0, 0, 0, 0, 129, 127, 179, 54, 192, 55, 170, 128, 215, 64, 22, 202, 146, 65, 59, 179, 255, 191, 0, 126, 0, 0, 0, 0, 129, 127, 164, 54, 78, 56, 50, 57, 235, 64, 22, 202, 146, 65, 63, 225, 17, 192, 0, 126, 0, 0, 0, 0, 129, 127, 179, 54, 102, 56, 236, 50, 147, 64, 188, 205, 129, 65, 59, 179, 255, 191, 0, 127, 0, 0, 0, 0, 130, 127, 43, 54, 241, 55, 170, 128, 215, 64, 188, 205, 129, 65, 119, 206, 130, 191, 0, 127, 0, 0, 0, 0, 130, 127, 244, 53, 78, 56, 170, 128, 215, 64, 188, 205, 129, 65, 59, 179, 255, 191, 0, 127, 0, 0, 0, 0, 129, 127, 43, 54, 78, 56, 170, 128, 215, 64, 22, 202, 146, 65, 59, 179, 255, 191, 129, 0, 0, 0, 0, 0, 130, 127, 184, 54, 111, 54, 170, 128, 215, 64, 188, 205, 129, 65, 119, 206, 130, 191, 129, 0, 0, 0, 0, 0, 130, 127, 106, 54, 198, 53, 170, 128, 215, 64, 22, 202, 146, 65, 119, 206, 130, 191, 129, 0, 0, 0, 0, 0, 129, 127, 106, 54, 111, 54, 170, 128, 215, 64, 22, 202, 146, 65, 119, 206, 130, 191, 0, 0, 129, 0, 0, 127, 0, 127, 180, 53, 107, 53, 236, 50, 147, 64, 188, 205, 129, 65, 119, 206, 130, 191, 0, 0, 129, 0, 0, 127, 0, 127, 59, 53, 21, 54, 236, 50, 147, 64, 22, 202, 146, 65, 119, 206, 130, 191, 0, 0, 129, 0, 0, 127, 0, 127, 180, 53, 21, 54, 236, 50, 147, 64, 22, 202, 146, 65, 119, 206, 130, 191, 127, 0, 0, 0, 0, 0, 126, 127, 45, 55, 8, 54, 236, 50, 147, 64, 188, 205, 129, 65, 59, 179, 255, 191, 127, 0, 0, 0, 0, 0, 126, 127, 223, 54, 94, 53, 236, 50, 147, 64, 22, 202, 146, 65, 59, 179, 255, 191, 127, 0, 0, 0, 0, 0, 127, 127, 223, 54, 8, 54, 159, 206, 134, 64, 254, 110, 126, 64, 28, 83, 169, 64, 0, 0, 127, 0, 0, 127, 0, 127, 213, 57, 244, 58, 8, 253, 129, 64, 117, 110, 218, 64, 28, 83, 169, 64, 0, 0, 127, 0, 0, 127, 0, 127, 38, 58, 238, 58, 8, 253, 129, 64, 208, 203, 116, 64, 28, 83, 169, 64, 0, 0, 127, 0, 0, 126, 0, 127, 209, 57, 238, 58, 28, 240, 154, 63, 237, 8, 147, 64, 209, 210, 160, 64, 0, 0, 127, 0, 127, 0, 0, 127, 182, 54, 144, 54, 24, 240, 154, 191, 104, 84, 234, 61, 209, 210, 160, 64, 0, 0, 127, 0, 127, 0, 0, 127, 244, 53, 142, 55, 29, 240, 154, 63, 104, 84, 234, 61, 209, 210, 160, 64, 0, 0, 127, 0, 127, 0, 0, 127, 182, 54, 142, 55, 28, 240, 154, 63, 237, 8, 147, 64, 54, 105, 166, 64, 130, 0, 0, 0, 0, 0, 129, 127, 206, 53, 7, 54, 29, 240, 154, 63, 104, 84, 234, 61, 209, 210, 160, 64, 130, 0, 0, 0, 0, 0, 129, 127, 220, 53, 161, 52, 29, 240, 154, 63, 104, 84, 234, 61, 54, 105, 166, 64, 130, 0, 0, 0, 0, 0, 129, 127, 206, 53, 161, 52, 253, 186, 157, 191, 78, 214, 252, 61, 54, 105, 166, 64, 126, 0, 0, 0, 0, 0, 129, 127, 190, 53, 6, 54, 25, 240, 154, 191, 237, 8, 147, 64, 209, 210, 160, 64, 126, 0, 0, 0, 0, 0, 130, 127, 204, 53, 161, 52, 25, 240, 154, 191, 237, 8, 147, 64, 54, 105, 166, 64, 126, 0, 0, 0, 0, 0, 129, 127, 190, 53, 161, 52, 29, 240, 154, 63, 104, 84, 234, 61, 54, 105, 166, 64, 0, 126, 250, 0, 0, 6, 126, 127, 105, 57, 49, 54, 24, 240, 154, 191, 104, 84, 234, 61, 209, 210, 160, 64, 0, 126, 250, 0, 0, 6, 126, 127, 100, 57, 243, 54, 253, 186, 157, 191, 78, 214, 252, 61, 54, 105, 166, 64, 0, 126, 250, 0, 0, 6, 126, 127, 105, 57, 244, 54, 186, 165, 216, 64, 208, 203, 116, 64, 54, 105, 166, 64, 0, 129, 0, 0, 0, 0, 126, 127, 194, 54, 104, 56, 8, 253, 129, 64, 208, 203, 116, 64, 28, 83, 169, 64, 0, 129, 0, 0, 0, 0, 126, 127, 201, 54, 249, 55, 8, 253, 129, 64, 208, 203, 116, 64, 54, 105, 166, 64, 0, 129, 0, 0, 0, 0, 127, 127, 194, 54, 249, 55, 212, 105, 217, 191, 117, 110, 218, 64, 54, 105, 166, 64, 127, 0, 0, 0, 0, 0, 129, 127, 113, 57, 1, 54, 209, 105, 217, 191, 208, 203, 116, 64, 28, 83, 169, 64, 127, 0, 0, 0, 0, 0, 129, 127, 110, 57, 241, 54, 209, 105, 217, 191, 208, 203, 116, 64, 54, 105, 166, 64, 127, 0, 0, 0, 0, 0, 129, 127, 113, 57, 241, 54, 34, 212, 211, 64, 222, 156, 213, 64, 204, 224, 160, 64, 0, 0, 126, 0, 0, 127, 0, 127, 41, 58, 85, 59, 159, 206, 134, 64, 254, 110, 126, 64, 204, 224, 160, 64, 0, 0, 126, 0, 0, 127, 0, 127, 220, 57, 244, 58, 35, 212, 211, 64, 254, 110, 126, 64, 204, 224, 160, 64, 0, 0, 126, 0, 0, 127, 0, 127, 220, 57, 85, 59, 29, 240, 154, 63, 104, 84, 234, 61, 54, 105, 166, 64, 0, 0, 127, 0, 0, 127, 0, 127, 106, 57, 124, 58, 94, 81, 173, 191, 0, 0, 239, 188, 54, 105, 166, 64, 0, 0, 127, 0, 0, 127, 0, 127, 102, 57, 22, 58, 100, 81, 173, 63, 0, 0, 239, 188, 54, 105, 166, 64, 0, 0, 127, 0, 0, 127, 0, 127, 102, 57, 130, 58, 204, 89, 181, 63, 76, 241, 127, 65, 0, 0, 0, 128, 0, 89, 90, 0, 0, 90, 167, 127, 20, 55, 113, 58, 146, 174, 30, 193, 76, 241, 127, 65, 0, 0, 0, 128, 0, 89, 90, 0, 0, 90, 167, 127, 20, 55, 172, 56, 146, 174, 30, 193, 204, 13, 12, 65, 95, 142, 229, 64, 0, 89, 90, 0, 0, 90, 167, 127, 203, 51, 172, 56, 53, 167, 23, 193, 204, 169, 247, 64, 54, 105, 166, 64, 129, 0, 0, 0, 0, 130, 0, 127, 196, 40, 202, 35, 53, 167, 23, 193, 84, 149, 15, 65, 54, 105, 166, 192, 129, 0, 0, 0, 0, 129, 0, 127, 190, 34, 250, 50, 53, 167, 23, 193, 0, 0, 239, 188, 54, 105, 166, 192, 129, 0, 0, 0, 0, 130, 0, 127, 10, 50, 250, 50, 53, 167, 23, 65, 84, 149, 15, 65, 34, 149, 208, 192, 0, 167, 90, 0, 129, 0, 0, 127, 16, 58, 64, 54, 146, 174, 30, 65, 60, 226, 120, 65, 0, 0, 0, 128, 0, 167, 90, 0, 129, 0, 0, 127, 255, 57, 126, 56, 53, 167, 23, 65, 60, 226, 120, 65, 0, 0, 0, 128, 0, 167, 90, 0, 129, 0, 0, 127, 16, 58, 126, 56, 53, 167, 23, 193, 84, 149, 15, 65, 54, 105, 166, 64, 0, 0, 127, 0, 0, 126, 0, 127, 101, 58, 209, 56, 53, 167, 23, 193, 204, 169, 247, 64, 54, 105, 166, 64, 0, 0, 127, 0, 0, 127, 0, 127, 66, 58, 209, 56, 186, 165, 216, 192, 117, 110, 218, 64, 54, 105, 166, 64, 0, 0, 127, 0, 0, 127, 0, 127, 41, 58, 62, 57, 146, 174, 30, 65, 60, 226, 120, 65, 0, 0, 0, 128, 127, 0, 0, 0, 0, 129, 0, 127, 208, 49, 78, 54, 146, 174, 30, 65, 76, 241, 127, 65, 0, 0, 0, 128, 127, 0, 0, 0, 0, 129, 0, 127, 137, 49, 78, 54, 146, 174, 30, 65, 84, 149, 15, 65, 34, 149, 208, 64, 127, 0, 0, 0, 0, 130, 0, 127, 245, 52, 43, 56, 53, 167, 23, 193, 84, 149, 15, 65, 34, 149, 208, 64, 0, 167, 166, 0, 127, 0, 0, 127, 77, 57, 64, 54, 146, 174, 30, 193, 60, 226, 120, 65, 0, 0, 0, 128, 0, 167, 166, 0, 127, 0, 0, 127, 59, 57, 126, 56, 53, 167, 23, 193, 60, 226, 120, 65, 0, 0, 0, 128, 0, 167, 166, 0, 127, 0, 0, 127, 77, 57, 126, 56, 88, 3, 136, 64, 225, 22, 93, 65, 166, 19, 10, 192, 0, 89, 166, 0, 0, 90, 89, 127, 237, 48, 142, 57, 62, 176, 226, 64, 225, 22, 93, 65, 166, 19, 10, 192, 0, 89, 166, 0, 0, 90, 89, 127, 237, 48, 29, 57, 146, 174, 30, 65, 204, 13, 12, 65, 95, 142, 229, 192, 0, 89, 166, 0, 0, 90, 89, 127, 162, 35, 172, 56, 9, 253, 129, 192, 84, 149, 15, 65, 34, 149, 208, 64, 0, 0, 0, 0, 127, 0, 0, 127, 0, 0, 0, 60, 53, 167, 23, 65, 60, 226, 120, 65, 0, 0, 0, 128, 0, 167, 166, 0, 127, 0, 0, 127, 19, 58, 126, 56, 146, 174, 30, 65, 84, 149, 15, 65, 34, 149, 208, 64, 0, 167, 166, 0, 127, 0, 0, 127, 36, 58, 64, 54, 53, 167, 23, 65, 84, 149, 15, 65, 34, 149, 208, 64, 0, 167, 166, 0, 127, 0, 0, 127, 19, 58, 64, 54, 202, 89, 181, 191, 84, 149, 15, 65, 34, 149, 208, 192, 0, 0, 0, 0, 127, 0, 0, 127, 0, 0, 0, 60, 159, 206, 134, 64, 254, 110, 126, 64, 28, 83, 169, 64, 0, 127, 0, 0, 0, 0, 129, 127, 213, 57, 244, 58, 35, 212, 211, 64, 254, 110, 126, 64, 204, 224, 160, 64, 0, 127, 0, 0, 0, 0, 129, 127, 220, 57, 85, 59, 159, 206, 134, 64, 254, 110, 126, 64, 204, 224, 160, 64, 0, 127, 0, 0, 0, 0, 129, 127, 220, 57, 244, 58, 170, 110, 233, 191, 63, 109, 214, 64, 28, 83, 169, 64, 129, 0, 0, 0, 0, 0, 129, 127, 201, 54, 22, 55, 167, 110, 233, 191, 58, 206, 124, 64, 224, 253, 162, 64, 129, 0, 0, 0, 0, 0, 129, 127, 216, 54, 58, 54, 167, 110, 233, 191, 58, 206, 124, 64, 28, 83, 169, 64, 129, 0, 0, 0, 0, 0, 129, 127, 201, 54, 58, 54, 62, 176, 226, 64, 155, 187, 141, 65, 166, 19, 10, 192, 0, 129, 0, 0, 0, 0, 127, 127, 247, 53, 83, 54, 88, 3, 136, 64, 155, 187, 141, 65, 166, 19, 10, 192, 0, 129, 0, 0, 0, 0, 127, 127, 247, 53, 112, 53, 201, 244, 126, 64, 155, 187, 141, 65, 63, 225, 17, 192, 0, 129, 0, 0, 0, 0, 127, 127, 238, 53, 91, 53, 8, 253, 129, 64, 208, 203, 116, 64, 54, 105, 166, 64, 129, 0, 0, 0, 0, 0, 129, 127, 107, 57, 188, 55, 8, 253, 129, 64, 117, 110, 218, 64, 28, 83, 169, 64, 129, 0, 0, 0, 0, 0, 129, 127, 103, 57, 86, 56, 8, 253, 129, 64, 117, 110, 218, 64, 54, 105, 166, 64, 129, 0, 0, 0, 0, 0, 129, 127, 107, 57, 86, 56, 170, 110, 233, 191, 63, 109, 214, 64, 224, 253, 162, 64, 0, 0, 127, 0, 0, 126, 0, 127, 218, 53, 98, 56, 132, 164, 212, 192, 60, 206, 124, 64, 224, 253, 162, 64, 0, 0, 127, 0, 0, 126, 0, 127, 62, 53, 67, 55, 167, 110, 233, 191, 58, 206, 124, 64, 224, 253, 162, 64, 0, 0, 127, 0, 0, 127, 0, 127, 62, 53, 98, 56, 9, 253, 129, 192, 117, 110, 218, 64, 54, 105, 166, 64, 0, 127, 0, 0, 0, 0, 129, 127, 41, 58, 170, 57, 186, 165, 216, 192, 117, 110, 218, 64, 28, 83, 169, 64, 0, 127, 0, 0, 0, 0, 130, 127, 38, 58, 62, 57, 212, 105, 217, 191, 117, 110, 218, 64, 28, 83, 169, 64, 0, 127, 0, 0, 0, 0, 129, 127, 38, 58, 8, 58, 209, 105, 217, 191, 208, 203, 116, 64, 54, 105, 166, 64, 0, 129, 0, 0, 0, 0, 127, 127, 223, 53, 8, 55, 209, 105, 217, 191, 208, 203, 116, 64, 28, 83, 169, 64, 0, 129, 0, 0, 0, 0, 127, 127, 229, 53, 8, 55, 8, 253, 129, 192, 208, 203, 116, 64, 28, 83, 169, 64, 0, 129, 0, 0, 0, 0, 127, 127, 229, 53, 75, 54, 170, 128, 215, 64, 22, 202, 146, 65, 119, 206, 130, 191, 0, 127, 0, 0, 0, 0, 129, 127, 109, 54, 78, 56, 236, 50, 147, 64, 22, 202, 146, 65, 119, 206, 130, 191, 0, 127, 0, 0, 0, 0, 129, 127, 109, 54, 241, 55, 201, 244, 126, 64, 22, 202, 146, 65, 103, 126, 61, 191, 0, 127, 0, 0, 0, 0, 129, 127, 93, 54, 192, 55, 132, 164, 212, 192, 60, 206, 124, 64, 28, 83, 169, 64, 0, 0, 127, 0, 0, 126, 0, 127, 212, 57, 67, 57, 8, 253, 129, 192, 208, 203, 116, 64, 28, 83, 169, 64, 0, 0, 127, 0, 0, 127, 0, 127, 209, 57, 170, 57, 8, 253, 129, 192, 60, 206, 124, 64, 28, 83, 169, 64, 0, 0, 127, 0, 0, 127, 0, 127, 212, 57, 170, 57, 170, 110, 233, 191, 63, 109, 214, 64, 28, 83, 169, 64, 0, 0, 127, 0, 0, 127, 0, 127, 34, 58, 3, 58, 209, 105, 217, 191, 208, 203, 116, 64, 28, 83, 169, 64, 0, 0, 127, 0, 0, 127, 0, 127, 209, 57, 8, 58, 212, 105, 217, 191, 117, 110, 218, 64, 28, 83, 169, 64, 0, 0, 127, 0, 0, 127, 0, 127, 38, 58, 8, 58, 185, 165, 216, 64, 117, 110, 218, 64, 28, 83, 169, 64, 0, 0, 127, 0, 0, 127, 0, 127, 38, 58, 91, 59, 8, 253, 129, 64, 117, 110, 218, 64, 28, 83, 169, 64, 0, 0, 127, 0, 0, 127, 0, 127, 38, 58, 238, 58, 34, 212, 211, 64, 222, 156, 213, 64, 28, 83, 169, 64, 0, 0, 127, 0, 0, 127, 0, 127, 34, 58, 85, 59, 8, 253, 129, 64, 117, 110, 218, 64, 54, 105, 166, 64, 0, 127, 0, 0, 0, 0, 130, 127, 41, 58, 238, 58, 185, 165, 216, 64, 117, 110, 218, 64, 28, 83, 169, 64, 0, 127, 0, 0, 0, 0, 130, 127, 38, 58, 91, 59, 185, 165, 216, 64, 117, 110, 218, 64, 54, 105, 166, 64, 0, 127, 0, 0, 0, 0, 129, 127, 41, 58, 91, 59, 185, 165, 216, 64, 117, 110, 218, 64, 54, 105, 166, 64, 127, 0, 0, 0, 0, 0, 129, 127, 109, 57, 1, 54, 186, 165, 216, 64, 208, 203, 116, 64, 28, 83, 169, 64, 127, 0, 0, 0, 0, 0, 129, 127, 106, 57, 241, 54, 186, 165, 216, 64, 208, 203, 116, 64, 54, 105, 166, 64, 127, 0, 0, 0, 0, 0, 129, 127, 109, 57, 241, 54, 186, 165, 216, 192, 208, 203, 116, 64, 54, 105, 166, 64, 129, 0, 0, 0, 0, 0, 129, 127, 111, 57, 188, 55, 186, 165, 216, 192, 117, 110, 218, 64, 28, 83, 169, 64, 129, 0, 0, 0, 0, 0, 129, 127, 107, 57, 86, 56, 186, 165, 216, 192, 117, 110, 218, 64, 54, 105, 166, 64, 129, 0, 0, 0, 0, 0, 129, 127, 111, 57, 86, 56, 53, 167, 23, 65, 0, 0, 239, 188, 54, 105, 166, 64, 127, 0, 0, 0, 0, 129, 0, 127, 64, 54, 250, 50, 53, 167, 23, 65, 0, 0, 239, 188, 54, 105, 166, 192, 127, 0, 0, 0, 0, 130, 0, 127, 64, 54, 202, 35, 53, 167, 23, 65, 63, 161, 151, 64, 54, 105, 166, 64, 127, 0, 0, 0, 0, 129, 0, 127, 195, 52, 250, 50, 53, 167, 23, 65, 0, 0, 239, 188, 54, 105, 166, 192, 127, 0, 0, 0, 0, 130, 0, 127, 64, 54, 202, 35, 53, 167, 23, 65, 84, 149, 15, 65, 54, 105, 166, 192, 127, 0, 0, 0, 0, 129, 0, 127, 226, 50, 202, 35, 53, 167, 23, 65, 63, 161, 151, 64, 54, 105, 166, 64, 127, 0, 0, 0, 0, 129, 0, 127, 195, 52, 250, 50, 53, 167, 23, 193, 0, 0, 239, 188, 54, 105, 166, 192, 0, 130, 0, 0, 0, 0, 127, 127, 136, 55, 209, 56, 53, 167, 23, 65, 0, 0, 239, 188, 54, 105, 166, 192, 0, 130, 0, 0, 0, 0, 127, 127, 136, 55, 199, 59, 100, 81, 173, 63, 0, 0, 239, 188, 54, 105, 166, 64, 0, 130, 0, 0, 0, 0, 127, 127, 55, 57, 130, 58, 53, 167, 23, 65, 0, 0, 239, 188, 54, 105, 166, 192, 0, 129, 0, 0, 0, 0, 127, 127, 136, 55, 199, 59, 53, 167, 23, 65, 0, 0, 239, 188, 54, 105, 166, 64, 0, 129, 0, 0, 0, 0, 127, 127, 55, 57, 199, 59, 100, 81, 173, 63, 0, 0, 239, 188, 54, 105, 166, 64, 0, 129, 0, 0, 0, 0, 127, 127, 55, 57, 130, 58, 146, 174, 30, 193, 60, 226, 120, 65, 0, 0, 0, 128, 129, 0, 0, 0, 0, 129, 0, 127, 234, 36, 78, 54, 146, 174, 30, 193, 84, 149, 15, 65, 34, 149, 208, 64, 129, 0, 0, 0, 0, 130, 0, 127, 184, 48, 69, 52, 146, 174, 30, 193, 76, 241, 127, 65, 0, 0, 0, 128, 129, 0, 0, 0, 0, 129, 0, 127, 108, 33, 78, 54, 146, 174, 30, 193, 84, 149, 15, 65, 34, 149, 208, 64, 129, 0, 0, 0, 0, 130, 0, 127, 184, 48, 69, 52, 146, 174, 30, 193, 204, 13, 12, 65, 95, 142, 229, 64, 129, 0, 0, 0, 0, 129, 0, 127, 220, 48, 17, 52, 146, 174, 30, 193, 76, 241, 127, 65, 0, 0, 0, 128, 129, 0, 0, 0, 0, 129, 0, 127, 108, 33, 78, 54, 146, 174, 30, 193, 76, 241, 127, 65, 0, 0, 0, 128, 129, 0, 0, 0, 0, 129, 0, 127, 108, 33, 78, 54, 146, 174, 30, 193, 204, 13, 12, 65, 95, 142, 229, 192, 129, 0, 0, 0, 0, 129, 0, 127, 220, 48, 69, 56, 146, 174, 30, 193, 84, 149, 15, 65, 34, 149, 208, 192, 129, 0, 0, 0, 0, 130, 0, 127, 184, 48, 43, 56, 146, 174, 30, 65, 84, 149, 15, 65, 34, 149, 208, 64, 0, 0, 0, 0, 127, 0, 0, 127, 0, 0, 0, 60, 108, 125, 227, 191, 84, 149, 15, 65, 34, 149, 208, 192, 0, 136, 40, 0, 0, 40, 120, 127, 87, 58, 21, 53, 88, 3, 136, 192, 84, 149, 15, 65, 34, 149, 208, 192, 0, 136, 40, 0, 0, 40, 120, 127, 87, 58, 79, 52, 146, 174, 30, 193, 204, 13, 12, 65, 95, 142, 229, 192, 0, 136, 40, 0, 0, 40, 120, 127, 60, 58, 21, 49, 88, 3, 136, 192, 84, 149, 15, 65, 34, 149, 208, 192, 0, 136, 40, 0, 0, 40, 120, 127, 87, 58, 79, 52, 62, 176, 226, 192, 84, 149, 15, 65, 34, 149, 208, 192, 0, 136, 40, 0, 0, 40, 120, 127, 87, 58, 218, 50, 146, 174, 30, 193, 204, 13, 12, 65, 95, 142, 229, 192, 0, 136, 40, 0, 0, 40, 120, 127, 60, 58, 21, 49, 146, 174, 30, 193, 84, 149, 15, 65, 34, 149, 208, 192, 0, 136, 40, 0, 0, 40, 120, 127, 87, 58, 21, 49, 146, 174, 30, 193, 204, 13, 12, 65, 95, 142, 229, 192, 0, 136, 40, 0, 0, 40, 120, 127, 60, 58, 21, 49, 146, 174, 30, 65, 204, 13, 12, 65, 95, 142, 229, 192, 0, 136, 40, 0, 0, 40, 120, 127, 60, 58, 93, 56, 204, 89, 181, 63, 84, 149, 15, 65, 34, 149, 208, 192, 0, 136, 40, 0, 0, 40, 120, 127, 87, 58, 20, 54, 146, 174, 30, 65, 204, 13, 12, 65, 95, 142, 229, 192, 0, 136, 40, 0, 0, 40, 120, 127, 60, 58, 93, 56, 146, 174, 30, 65, 84, 149, 15, 65, 34, 149, 208, 192, 0, 136, 40, 0, 0, 40, 120, 127, 87, 58, 93, 56, 62, 176, 226, 64, 84, 149, 15, 65, 34, 149, 208, 192, 0, 136, 40, 0, 0, 40, 120, 127, 87, 58, 217, 55, 62, 176, 226, 64, 84, 149, 15, 65, 34, 149, 208, 192, 0, 136, 40, 0, 0, 40, 120, 127, 87, 58, 217, 55, 88, 3, 136, 64, 84, 149, 15, 65, 34, 149, 208, 192, 0, 136, 40, 0, 0, 40, 120, 127, 87, 58, 246, 54, 146, 174, 30, 65, 204, 13, 12, 65, 95, 142, 229, 192, 0, 136, 40, 0, 0, 40, 120, 127, 60, 58, 93, 56, 88, 3, 136, 64, 84, 149, 15, 65, 34, 149, 208, 192, 0, 136, 40, 0, 0, 40, 120, 127, 87, 58, 246, 54, 204, 89, 181, 63, 84, 149, 15, 65, 34, 149, 208, 192, 0, 136, 40, 0, 0, 40, 120, 127, 87, 58, 20, 54, 146, 174, 30, 65, 204, 13, 12, 65, 95, 142, 229, 192, 0, 136, 40, 0, 0, 40, 120, 127, 60, 58, 93, 56, 204, 89, 181, 63, 84, 149, 15, 65, 34, 149, 208, 192, 0, 136, 40, 0, 0, 40, 120, 127, 87, 58, 20, 54, 202, 89, 181, 191, 84, 149, 15, 65, 34, 149, 208, 192, 0, 136, 40, 0, 0, 40, 120, 127, 87, 58, 50, 53, 146, 174, 30, 193, 204, 13, 12, 65, 95, 142, 229, 192, 0, 136, 40, 0, 0, 40, 120, 127, 60, 58, 21, 49, 146, 174, 30, 193, 84, 149, 15, 65, 34, 149, 208, 192, 0, 0, 0, 0, 127, 0, 0, 127, 0, 0, 0, 60, 146, 174, 30, 193, 60, 226, 120, 65, 0, 0, 0, 128, 0, 167, 90, 0, 129, 0, 0, 127, 56, 58, 126, 56, 146, 174, 30, 193, 84, 149, 15, 65, 34, 149, 208, 64, 0, 136, 216, 0, 0, 216, 120, 127, 91, 58, 21, 49, 62, 176, 226, 192, 84, 149, 15, 65, 34, 149, 208, 64, 0, 136, 216, 0, 0, 216, 120, 127, 91, 58, 218, 50, 146, 174, 30, 193, 204, 13, 12, 65, 95, 142, 229, 64, 0, 136, 216, 0, 0, 216, 120, 127, 119, 58, 21, 49, 62, 176, 226, 192, 84, 149, 15, 65, 34, 149, 208, 64, 0, 136, 216, 0, 0, 216, 120, 127, 91, 58, 218, 50, 88, 3, 136, 192, 84, 149, 15, 65, 34, 149, 208, 64, 0, 136, 216, 0, 0, 216, 120, 127, 91, 58, 79, 52, 146, 174, 30, 193, 204, 13, 12, 65, 95, 142, 229, 64, 0, 136, 216, 0, 0, 216, 120, 127, 119, 58, 21, 49, 110, 125, 227, 191, 84, 149, 15, 65, 34, 149, 208, 64, 0, 136, 216, 0, 0, 216, 120, 127, 91, 58, 21, 53, 204, 89, 181, 191, 84, 149, 15, 65, 34, 149, 208, 64, 0, 136, 216, 0, 0, 216, 120, 127, 91, 58, 50, 53, 146, 174, 30, 193, 204, 13, 12, 65, 95, 142, 229, 64, 0, 136, 216, 0, 0, 216, 120, 127, 119, 58, 21, 49, 204, 89, 181, 191, 84, 149, 15, 65, 34, 149, 208, 64, 0, 136, 216, 0, 0, 216, 120, 127, 91, 58, 50, 53, 202, 89, 181, 63, 84, 149, 15, 65, 34, 149, 208, 64, 0, 136, 216, 0, 0, 216, 120, 127, 91, 58, 20, 54, 146, 174, 30, 193, 204, 13, 12, 65, 95, 142, 229, 64, 0, 136, 216, 0, 0, 216, 120, 127, 119, 58, 21, 49, 202, 89, 181, 63, 84, 149, 15, 65, 34, 149, 208, 64, 0, 136, 216, 0, 0, 216, 120, 127, 91, 58, 20, 54, 88, 3, 136, 64, 84, 149, 15, 65, 34, 149, 208, 64, 0, 136, 216, 0, 0, 216, 120, 127, 91, 58, 246, 54, 146, 174, 30, 65, 204, 13, 12, 65, 95, 142, 229, 64, 0, 136, 216, 0, 0, 216, 120, 127, 119, 58, 93, 56, 146, 174, 30, 193, 204, 13, 12, 65, 95, 142, 229, 64, 0, 136, 216, 0, 0, 216, 120, 127, 119, 58, 21, 49, 202, 89, 181, 63, 84, 149, 15, 65, 34, 149, 208, 64, 0, 136, 216, 0, 0, 216, 120, 127, 91, 58, 20, 54, 146, 174, 30, 65, 204, 13, 12, 65, 95, 142, 229, 64, 0, 136, 216, 0, 0, 216, 120, 127, 119, 58, 93, 56, 146, 174, 30, 193, 204, 13, 12, 65, 95, 142, 229, 64, 0, 136, 216, 0, 0, 216, 120, 127, 119, 58, 21, 49, 88, 3, 136, 192, 84, 149, 15, 65, 34, 149, 208, 64, 0, 136, 216, 0, 0, 216, 120, 127, 91, 58, 79, 52, 110, 125, 227, 191, 84, 149, 15, 65, 34, 149, 208, 64, 0, 136, 216, 0, 0, 216, 120, 127, 91, 58, 21, 53, 146, 174, 30, 65, 84, 149, 15, 65, 34, 149, 208, 64, 0, 136, 216, 0, 0, 216, 120, 127, 91, 58, 93, 56, 146, 174, 30, 65, 204, 13, 12, 65, 95, 142, 229, 64, 0, 136, 216, 0, 0, 216, 120, 127, 119, 58, 93, 56, 62, 176, 226, 64, 84, 149, 15, 65, 34, 149, 208, 64, 0, 136, 216, 0, 0, 216, 120, 127, 91, 58, 217, 55, 8, 253, 129, 192, 60, 206, 124, 64, 28, 83, 169, 64, 0, 127, 0, 0, 0, 0, 129, 127, 212, 57, 170, 57, 167, 110, 233, 191, 58, 206, 124, 64, 28, 83, 169, 64, 0, 127, 0, 0, 0, 0, 129, 127, 212, 57, 3, 58, 167, 110, 233, 191, 58, 206, 124, 64, 224, 253, 162, 64, 0, 127, 0, 0, 0, 0, 129, 127, 218, 57, 3, 58, 167, 110, 233, 191, 58, 206, 124, 64, 224, 253, 162, 64, 0, 126, 0, 0, 0, 0, 129, 127, 84, 57, 80, 56, 132, 164, 212, 192, 60, 206, 124, 64, 224, 253, 162, 64, 0, 126, 0, 0, 0, 0, 129, 127, 84, 57, 32, 55, 8, 253, 129, 192, 60, 206, 124, 64, 28, 83, 169, 64, 0, 126, 0, 0, 0, 0, 129, 127, 79, 57, 238, 55, 34, 212, 211, 64, 222, 156, 213, 64, 204, 224, 160, 64, 129, 0, 0, 0, 0, 0, 129, 127, 74, 55, 5, 54, 132, 164, 212, 192, 60, 206, 124, 64, 28, 83, 169, 64, 127, 0, 0, 0, 0, 0, 129, 127, 91, 57, 243, 54, 53, 167, 23, 65, 84, 149, 15, 65, 54, 105, 166, 192, 0, 129, 0, 0, 0, 0, 126, 127, 55, 57, 96, 56, 53, 167, 23, 193, 84, 149, 15, 65, 54, 105, 166, 192, 0, 129, 0, 0, 0, 0, 127, 127, 55, 57, 172, 49, 94, 81, 173, 191, 84, 149, 15, 65, 34, 149, 208, 192, 0, 129, 0, 0, 0, 0, 127, 127, 8, 57, 95, 53, 53, 167, 23, 193, 84, 149, 15, 65, 54, 105, 166, 192, 0, 130, 0, 0, 0, 0, 127, 127, 55, 57, 172, 49, 53, 167, 23, 193, 84, 149, 15, 65, 34, 149, 208, 192, 0, 130, 0, 0, 0, 0, 127, 127, 8, 57, 172, 49, 185, 165, 216, 192, 84, 149, 15, 65, 34, 149, 208, 192, 0, 130, 0, 0, 0, 0, 127, 127, 8, 57, 93, 51, 185, 165, 216, 192, 84, 149, 15, 65, 34, 149, 208, 192, 0, 130, 0, 0, 0, 0, 127, 127, 8, 57, 93, 51, 8, 253, 129, 192, 84, 149, 15, 65, 34, 149, 208, 192, 0, 130, 0, 0, 0, 0, 127, 127, 8, 57, 135, 52, 53, 167, 23, 193, 84, 149, 15, 65, 54, 105, 166, 192, 0, 130, 0, 0, 0, 0, 127, 127, 55, 57, 172, 49, 8, 253, 129, 192, 84, 149, 15, 65, 34, 149, 208, 192, 0, 129, 0, 0, 0, 0, 126, 127, 8, 57, 135, 52, 208, 105, 217, 191, 84, 149, 15, 65, 34, 149, 208, 192, 0, 129, 0, 0, 0, 0, 127, 127, 8, 57, 67, 53, 53, 167, 23, 193, 84, 149, 15, 65, 54, 105, 166, 192, 0, 129, 0, 0, 0, 0, 127, 127, 55, 57, 172, 49, 53, 167, 23, 193, 84, 149, 15, 65, 54, 105, 166, 192, 0, 129, 0, 0, 0, 0, 127, 127, 55, 57, 172, 49, 208, 105, 217, 191, 84, 149, 15, 65, 34, 149, 208, 192, 0, 129, 0, 0, 0, 0, 127, 127, 8, 57, 67, 53, 94, 81, 173, 191, 84, 149, 15, 65, 34, 149, 208, 192, 0, 129, 0, 0, 0, 0, 127, 127, 8, 57, 95, 53, 186, 165, 216, 64, 84, 149, 15, 65, 34, 149, 208, 192, 0, 129, 0, 0, 0, 0, 127, 127, 8, 57, 232, 55, 53, 167, 23, 65, 84, 149, 15, 65, 34, 149, 208, 192, 0, 129, 0, 0, 0, 0, 127, 127, 8, 57, 96, 56, 53, 167, 23, 65, 84, 149, 15, 65, 54, 105, 166, 192, 0, 129, 0, 0, 0, 0, 127, 127, 55, 57, 96, 56, 94, 81, 173, 191, 84, 149, 15, 65, 34, 149, 208, 192, 0, 129, 0, 0, 0, 0, 127, 127, 8, 57, 95, 53, 100, 81, 173, 63, 84, 149, 15, 65, 34, 149, 208, 192, 0, 129, 0, 0, 0, 0, 127, 127, 8, 57, 55, 54, 53, 167, 23, 65, 84, 149, 15, 65, 54, 105, 166, 192, 0, 129, 0, 0, 0, 0, 126, 127, 55, 57, 96, 56, 100, 81, 173, 63, 84, 149, 15, 65, 34, 149, 208, 192, 0, 129, 0, 0, 0, 0, 127, 127, 8, 57, 55, 54, 9, 253, 129, 64, 84, 149, 15, 65, 34, 149, 208, 192, 0, 129, 0, 0, 0, 0, 126, 127, 8, 57, 16, 55, 53, 167, 23, 65, 84, 149, 15, 65, 54, 105, 166, 192, 0, 129, 0, 0, 0, 0, 126, 127, 55, 57, 96, 56, 53, 167, 23, 193, 84, 149, 15, 65, 34, 149, 208, 64, 0, 129, 0, 0, 0, 0, 127, 127, 0, 57, 172, 49, 53, 167, 23, 193, 84, 149, 15, 65, 54, 105, 166, 64, 0, 129, 0, 0, 0, 0, 127, 127, 209, 56, 172, 49, 186, 165, 216, 192, 84, 149, 15, 65, 34, 149, 208, 64, 0, 129, 0, 0, 0, 0, 127, 127, 0, 57, 93, 51, 53, 167, 23, 193, 84, 149, 15, 65, 54, 105, 166, 64, 0, 129, 0, 0, 0, 0, 127, 127, 209, 56, 172, 49, 9, 253, 129, 192, 84, 149, 15, 65, 54, 105, 166, 64, 0, 129, 0, 0, 0, 0, 127, 127, 209, 56, 135, 52, 186, 165, 216, 192, 84, 149, 15, 65, 34, 149, 208, 64, 0, 129, 0, 0, 0, 0, 127, 127, 0, 57, 93, 51, 100, 81, 173, 191, 84, 149, 15, 65, 54, 105, 166, 64, 0, 130, 0, 0, 0, 0, 127, 127, 209, 56, 95, 53, 53, 167, 23, 65, 84, 149, 15, 65, 54, 105, 166, 64, 0, 130, 0, 0, 0, 0, 127, 127, 209, 56, 96, 56, 8, 253, 129, 64, 84, 149, 15, 65, 34, 149, 208, 64, 0, 130, 0, 0, 0, 0, 126, 127, 0, 57, 16, 55, 53, 167, 23, 65, 84, 149, 15, 65, 54, 105, 166, 64, 0, 130, 0, 0, 0, 0, 127, 127, 209, 56, 96, 56, 53, 167, 23, 65, 84, 149, 15, 65, 34, 149, 208, 64, 0, 130, 0, 0, 0, 0, 127, 127, 0, 57, 96, 56, 185, 165, 216, 64, 84, 149, 15, 65, 34, 149, 208, 64, 0, 130, 0, 0, 0, 0, 127, 127, 0, 57, 232, 55, 9, 253, 129, 192, 84, 149, 15, 65, 54, 105, 166, 64, 0, 129, 0, 0, 0, 0, 126, 127, 209, 56, 135, 52, 100, 81, 173, 191, 84, 149, 15, 65, 54, 105, 166, 64, 0, 129, 0, 0, 0, 0, 126, 127, 209, 56, 95, 53, 213, 105, 217, 191, 84, 149, 15, 65, 34, 149, 208, 64, 0, 129, 0, 0, 0, 0, 127, 127, 0, 57, 67, 53, 186, 165, 216, 192, 84, 149, 15, 65, 34, 149, 208, 64, 0, 130, 0, 0, 0, 0, 127, 127, 0, 57, 93, 51, 9, 253, 129, 192, 84, 149, 15, 65, 54, 105, 166, 64, 0, 130, 0, 0, 0, 0, 127, 127, 209, 56, 135, 52, 9, 253, 129, 192, 84, 149, 15, 65, 34, 149, 208, 64, 0, 130, 0, 0, 0, 0, 127, 127, 0, 57, 135, 52, 213, 105, 217, 191, 84, 149, 15, 65, 34, 149, 208, 64, 0, 129, 0, 0, 0, 0, 127, 127, 0, 57, 67, 53, 9, 253, 129, 192, 84, 149, 15, 65, 34, 149, 208, 64, 0, 129, 0, 0, 0, 0, 127, 127, 0, 57, 135, 52, 9, 253, 129, 192, 84, 149, 15, 65, 54, 105, 166, 64, 0, 129, 0, 0, 0, 0, 126, 127, 209, 56, 135, 52, 53, 167, 23, 65, 84, 149, 15, 65, 54, 105, 166, 64, 0, 130, 0, 0, 0, 0, 127, 127, 209, 56, 96, 56, 185, 165, 216, 64, 84, 149, 15, 65, 34, 149, 208, 64, 0, 130, 0, 0, 0, 0, 127, 127, 0, 57, 232, 55, 8, 253, 129, 64, 84, 149, 15, 65, 34, 149, 208, 64, 0, 130, 0, 0, 0, 0, 126, 127, 0, 57, 16, 55, 8, 253, 129, 64, 84, 149, 15, 65, 34, 149, 208, 64, 0, 129, 0, 0, 0, 0, 127, 127, 0, 57, 16, 55, 94, 81, 173, 63, 84, 149, 15, 65, 34, 149, 208, 64, 0, 129, 0, 0, 0, 0, 127, 127, 0, 57, 55, 54, 100, 81, 173, 191, 84, 149, 15, 65, 54, 105, 166, 64, 0, 129, 0, 0, 0, 0, 126, 127, 209, 56, 95, 53, 94, 81, 173, 63, 84, 149, 15, 65, 34, 149, 208, 64, 0, 129, 0, 0, 0, 0, 127, 127, 0, 57, 55, 54, 100, 81, 173, 191, 84, 149, 15, 65, 34, 149, 208, 64, 0, 129, 0, 0, 0, 0, 127, 127, 0, 57, 95, 53, 100, 81, 173, 191, 84, 149, 15, 65, 54, 105, 166, 64, 0, 129, 0, 0, 0, 0, 126, 127, 209, 56, 95, 53, 53, 167, 23, 65, 0, 0, 239, 188, 54, 105, 166, 192, 0, 0, 129, 0, 0, 129, 0, 127, 187, 56, 96, 56, 159, 206, 134, 64, 222, 156, 213, 64, 28, 83, 169, 64, 127, 0, 0, 0, 0, 0, 127, 127, 90, 57, 243, 54, 25, 240, 154, 191, 237, 8, 147, 64, 209, 210, 160, 64, 0, 129, 0, 0, 0, 0, 127, 127, 96, 57, 238, 55, 98, 81, 173, 191, 204, 169, 247, 64, 54, 105, 166, 64, 0, 0, 127, 0, 0, 126, 0, 127, 66, 58, 22, 58, 100, 81, 173, 191, 84, 149, 15, 65, 54, 105, 166, 64, 0, 0, 127, 0, 0, 126, 0, 127, 101, 58, 22, 58, 212, 105, 217, 191, 117, 110, 218, 64, 54, 105, 166, 64, 0, 0, 127, 0, 0, 127, 0, 127, 41, 58, 8, 58, 100, 81, 173, 191, 84, 149, 15, 65, 54, 105, 166, 64, 0, 0, 127, 0, 0, 126, 0, 127, 101, 58, 22, 58, 9, 253, 129, 192, 84, 149, 15, 65, 54, 105, 166, 64, 0, 0, 127, 0, 0, 126, 0, 127, 101, 58, 170, 57, 212, 105, 217, 191, 117, 110, 218, 64, 54, 105, 166, 64, 0, 0, 127, 0, 0, 127, 0, 127, 41, 58, 8, 58, 9, 253, 129, 192, 84, 149, 15, 65, 54, 105, 166, 64, 0, 0, 127, 0, 0, 126, 0, 127, 101, 58, 170, 57, 9, 253, 129, 192, 117, 110, 218, 64, 54, 105, 166, 64, 0, 0, 127, 0, 0, 127, 0, 127, 41, 58, 170, 57, 212, 105, 217, 191, 117, 110, 218, 64, 54, 105, 166, 64, 0, 0, 127, 0, 0, 127, 0, 127, 41, 58, 8, 58, 8, 253, 129, 64, 208, 203, 116, 64, 54, 105, 166, 64, 0, 0, 127, 0, 0, 127, 0, 127, 211, 57, 238, 58, 8, 253, 129, 64, 117, 110, 218, 64, 54, 105, 166, 64, 0, 0, 127, 0, 0, 127, 0, 127, 41, 58, 238, 58, 28, 240, 154, 63, 237, 8, 147, 64, 54, 105, 166, 64, 0, 0, 127, 0, 0, 126, 0, 127, 233, 57, 124, 58, 8, 253, 129, 64, 117, 110, 218, 64, 54, 105, 166, 64, 0, 0, 127, 0, 0, 127, 0, 127, 41, 58, 238, 58, 98, 81, 173, 191, 204, 169, 247, 64, 54, 105, 166, 64, 0, 0, 127, 0, 0, 126, 0, 127, 66, 58, 22, 58, 28, 240, 154, 63, 237, 8, 147, 64, 54, 105, 166, 64, 0, 0, 127, 0, 0, 126, 0, 127, 233, 57, 124, 58, 53, 167, 23, 65, 0, 0, 239, 188, 54, 105, 166, 64, 0, 0, 127, 0, 0, 127, 0, 127, 102, 57, 199, 59, 53, 167, 23, 65, 63, 161, 151, 64, 54, 105, 166, 64, 0, 0, 127, 0, 0, 127, 0, 127, 237, 57, 199, 59, 186, 165, 216, 64, 208, 203, 116, 64, 54, 105, 166, 64, 0, 0, 127, 0, 0, 127, 0, 127, 211, 57, 91, 59, 98, 81, 173, 191, 204, 169, 247, 64, 54, 105, 166, 64, 0, 0, 127, 0, 0, 126, 0, 127, 66, 58, 22, 58, 212, 105, 217, 191, 117, 110, 218, 64, 54, 105, 166, 64, 0, 0, 127, 0, 0, 127, 0, 127, 41, 58, 8, 58, 209, 105, 217, 191, 208, 203, 116, 64, 54, 105, 166, 64, 0, 0, 127, 0, 0, 127, 0, 127, 211, 57, 8, 58, 28, 240, 154, 63, 237, 8, 147, 64, 54, 105, 166, 64, 0, 0, 126, 0, 0, 127, 0, 127, 233, 57, 124, 58, 98, 81, 173, 191, 204, 169, 247, 64, 54, 105, 166, 64, 0, 0, 126, 0, 0, 127, 0, 127, 66, 58, 22, 58, 25, 240, 154, 191, 237, 8, 147, 64, 54, 105, 166, 64, 0, 0, 126, 0, 0, 127, 0, 127, 233, 57, 28, 58, 53, 167, 23, 65, 0, 0, 239, 188, 54, 105, 166, 64, 0, 0, 127, 0, 0, 127, 0, 127, 102, 57, 199, 59, 186, 165, 216, 64, 208, 203, 116, 64, 54, 105, 166, 64, 0, 0, 127, 0, 0, 127, 0, 127, 211, 57, 91, 59, 8, 253, 129, 64, 208, 203, 116, 64, 54, 105, 166, 64, 0, 0, 127, 0, 0, 127, 0, 127, 211, 57, 238, 58, 29, 240, 154, 63, 104, 84, 234, 61, 54, 105, 166, 64, 0, 0, 127, 0, 0, 127, 0, 127, 106, 57, 124, 58, 100, 81, 173, 63, 0, 0, 239, 188, 54, 105, 166, 64, 0, 0, 127, 0, 0, 127, 0, 127, 102, 57, 130, 58, 8, 253, 129, 64, 208, 203, 116, 64, 54, 105, 166, 64, 0, 0, 127, 0, 0, 127, 0, 127, 211, 57, 238, 58, 100, 81, 173, 63, 0, 0, 239, 188, 54, 105, 166, 64, 0, 0, 127, 0, 0, 127, 0, 127, 102, 57, 130, 58, 53, 167, 23, 65, 0, 0, 239, 188, 54, 105, 166, 64, 0, 0, 127, 0, 0, 127, 0, 127, 102, 57, 199, 59, 8, 253, 129, 64, 208, 203, 116, 64, 54, 105, 166, 64, 0, 0, 127, 0, 0, 127, 0, 127, 211, 57, 238, 58, 28, 240, 154, 63, 237, 8, 147, 64, 54, 105, 166, 64, 0, 0, 127, 0, 0, 126, 0, 127, 233, 57, 124, 58, 29, 240, 154, 63, 104, 84, 234, 61, 54, 105, 166, 64, 0, 0, 127, 0, 0, 127, 0, 127, 106, 57, 124, 58, 8, 253, 129, 64, 208, 203, 116, 64, 54, 105, 166, 64, 0, 0, 127, 0, 0, 127, 0, 127, 211, 57, 238, 58, 25, 240, 154, 191, 237, 8, 147, 64, 54, 105, 166, 64, 0, 0, 127, 0, 0, 127, 0, 127, 233, 57, 28, 58, 98, 81, 173, 191, 204, 169, 247, 64, 54, 105, 166, 64, 0, 0, 127, 0, 0, 126, 0, 127, 66, 58, 22, 58, 209, 105, 217, 191, 208, 203, 116, 64, 54, 105, 166, 64, 0, 0, 127, 0, 0, 127, 0, 127, 211, 57, 8, 58, 94, 81, 173, 191, 0, 0, 239, 188, 54, 105, 166, 64, 0, 0, 127, 0, 0, 127, 0, 127, 102, 57, 22, 58, 253, 186, 157, 191, 78, 214, 252, 61, 54, 105, 166, 64, 0, 0, 127, 0, 0, 127, 0, 127, 106, 57, 27, 58, 209, 105, 217, 191, 208, 203, 116, 64, 54, 105, 166, 64, 0, 0, 127, 0, 0, 127, 0, 127, 211, 57, 8, 58, 253, 186, 157, 191, 78, 214, 252, 61, 54, 105, 166, 64, 0, 0, 127, 0, 0, 127, 0, 127, 106, 57, 27, 58, 25, 240, 154, 191, 237, 8, 147, 64, 54, 105, 166, 64, 0, 0, 127, 0, 0, 127, 0, 127, 233, 57, 28, 58, 209, 105, 217, 191, 208, 203, 116, 64, 54, 105, 166, 64, 0, 0, 127, 0, 0, 127, 0, 127, 211, 57, 8, 58, 53, 167, 23, 193, 0, 0, 239, 188, 54, 105, 166, 64, 0, 0, 127, 0, 0, 127, 0, 127, 102, 57, 209, 56, 94, 81, 173, 191, 0, 0, 239, 188, 54, 105, 166, 64, 0, 0, 127, 0, 0, 127, 0, 127, 102, 57, 22, 58, 186, 165, 216, 192, 208, 203, 116, 64, 54, 105, 166, 64, 0, 0, 127, 0, 0, 127, 0, 127, 211, 57, 62, 57, 186, 165, 216, 192, 208, 203, 116, 64, 54, 105, 166, 64, 0, 0, 127, 0, 0, 127, 0, 127, 211, 57, 62, 57, 94, 81, 173, 191, 0, 0, 239, 188, 54, 105, 166, 64, 0, 0, 127, 0, 0, 127, 0, 127, 102, 57, 22, 58, 209, 105, 217, 191, 208, 203, 116, 64, 54, 105, 166, 64, 0, 0, 127, 0, 0, 127, 0, 127, 211, 57, 8, 58, 186, 165, 216, 192, 117, 110, 218, 64, 54, 105, 166, 64, 0, 0, 127, 0, 0, 127, 0, 127, 41, 58, 62, 57, 53, 167, 23, 193, 204, 169, 247, 64, 54, 105, 166, 64, 0, 0, 127, 0, 0, 127, 0, 127, 66, 58, 209, 56, 186, 165, 216, 192, 208, 203, 116, 64, 54, 105, 166, 64, 0, 0, 127, 0, 0, 127, 0, 127, 211, 57, 62, 57, 62, 176, 226, 64, 212, 3, 114, 65, 202, 180, 92, 191, 0, 89, 166, 0, 0, 90, 89, 127, 19, 50, 29, 57, 88, 3, 136, 64, 212, 3, 114, 65, 202, 180, 92, 191, 0, 89, 166, 0, 0, 90, 89, 127, 19, 50, 142, 57, 62, 176, 226, 64, 76, 241, 127, 65, 0, 0, 0, 128, 0, 89, 166, 0, 0, 90, 89, 127, 214, 50, 29, 57, 204, 89, 181, 63, 212, 3, 114, 65, 202, 180, 92, 191, 0, 89, 166, 0, 0, 90, 89, 127, 19, 50, 255, 57, 204, 89, 181, 63, 76, 241, 127, 65, 0, 0, 0, 128, 0, 89, 166, 0, 0, 90, 89, 127, 214, 50, 255, 57, 53, 167, 23, 65, 84, 149, 15, 65, 54, 105, 166, 64, 0, 0, 126, 0, 0, 126, 0, 127, 101, 58, 199, 59, 100, 81, 173, 191, 84, 149, 15, 65, 54, 105, 166, 64, 0, 0, 126, 0, 0, 127, 0, 127, 101, 58, 22, 58, 8, 253, 129, 64, 117, 110, 218, 64, 54, 105, 166, 64, 0, 0, 126, 0, 0, 126, 0, 127, 41, 58, 238, 58, 100, 81, 173, 191, 84, 149, 15, 65, 54, 105, 166, 64, 0, 0, 127, 0, 0, 126, 0, 127, 101, 58, 22, 58, 98, 81, 173, 191, 204, 169, 247, 64, 54, 105, 166, 64, 0, 0, 127, 0, 0, 126, 0, 127, 66, 58, 22, 58, 8, 253, 129, 64, 117, 110, 218, 64, 54, 105, 166, 64, 0, 0, 127, 0, 0, 127, 0, 127, 41, 58, 238, 58, 8, 253, 129, 64, 117, 110, 218, 64, 54, 105, 166, 64, 0, 0, 126, 0, 0, 126, 0, 127, 41, 58, 238, 58, 185, 165, 216, 64, 117, 110, 218, 64, 54, 105, 166, 64, 0, 0, 126, 0, 0, 127, 0, 127, 41, 58, 91, 59, 53, 167, 23, 65, 84, 149, 15, 65, 54, 105, 166, 64, 0, 0, 126, 0, 0, 126, 0, 127, 101, 58, 199, 59, 186, 165, 216, 64, 208, 203, 116, 64, 54, 105, 166, 64, 0, 0, 127, 0, 0, 127, 0, 127, 211, 57, 91, 59, 53, 167, 23, 65, 63, 161, 151, 64, 54, 105, 166, 64, 0, 0, 127, 0, 0, 127, 0, 127, 237, 57, 199, 59, 185, 165, 216, 64, 117, 110, 218, 64, 54, 105, 166, 64, 0, 0, 127, 0, 0, 127, 0, 127, 41, 58, 91, 59, 88, 3, 136, 64, 225, 22, 93, 65, 166, 19, 10, 192, 0, 0, 129, 0, 0, 127, 0, 127, 237, 48, 142, 57, 88, 3, 136, 64, 155, 187, 141, 65, 166, 19, 10, 192, 0, 0, 129, 0, 0, 127, 0, 127, 167, 50, 142, 57, 62, 176, 226, 64, 155, 187, 141, 65, 166, 19, 10, 192, 0, 0, 129, 0, 0, 127, 0, 127, 167, 50, 29, 57, 88, 3, 136, 64, 212, 3, 114, 65, 202, 180, 92, 191, 129, 0, 0, 0, 0, 0, 127, 127, 73, 55, 48, 56, 88, 3, 136, 64, 155, 187, 141, 65, 202, 180, 92, 191, 129, 0, 0, 0, 0, 0, 127, 127, 73, 55, 146, 55, 88, 3, 136, 64, 155, 187, 141, 65, 166, 19, 10, 192, 129, 0, 0, 0, 0, 0, 127, 127, 225, 54, 146, 55, 62, 176, 226, 64, 212, 3, 114, 65, 202, 180, 92, 191, 127, 0, 0, 0, 0, 0, 127, 127, 73, 55, 149, 54, 62, 176, 226, 64, 225, 22, 93, 65, 166, 19, 10, 192, 127, 0, 0, 0, 0, 0, 127, 127, 225, 54, 44, 54, 62, 176, 226, 64, 155, 187, 141, 65, 166, 19, 10, 192, 127, 0, 0, 0, 0, 0, 127, 127, 225, 54, 100, 55, 62, 176, 226, 64, 155, 187, 141, 65, 202, 180, 92, 191, 0, 0, 127, 0, 0, 127, 0, 127, 208, 53, 21, 55, 201, 244, 126, 64, 22, 202, 146, 65, 63, 225, 17, 192, 0, 0, 129, 0, 0, 127, 0, 127, 77, 57, 247, 53, 62, 176, 226, 64, 155, 187, 141, 65, 202, 180, 92, 191, 0, 130, 0, 0, 0, 0, 127, 127, 83, 54, 83, 54, 50, 57, 235, 64, 155, 187, 141, 65, 103, 126, 61, 191, 0, 130, 0, 0, 0, 0, 127, 127, 92, 54, 104, 54, 201, 244, 126, 64, 155, 187, 141, 65, 103, 126, 61, 191, 0, 130, 0, 0, 0, 0, 127, 127, 92, 54, 91, 53, 170, 110, 233, 191, 63, 109, 214, 64, 224, 253, 162, 64, 0, 130, 0, 0, 0, 0, 127, 127, 202, 54, 98, 56, 50, 57, 235, 64, 22, 202, 146, 65, 63, 225, 17, 192, 126, 0, 0, 0, 0, 129, 0, 127, 162, 54, 53, 53, 50, 57, 235, 64, 22, 202, 146, 65, 103, 126, 61, 191, 0, 0, 127, 0, 0, 127, 0, 127, 93, 54, 102, 56, 201, 244, 126, 64, 22, 202, 146, 65, 103, 126, 61, 191, 130, 0, 0, 0, 0, 129, 0, 127, 104, 54, 53, 53, 236, 50, 147, 64, 188, 205, 129, 65, 59, 179, 255, 191, 0, 0, 127, 0, 0, 127, 0, 127, 43, 54, 241, 55, 159, 206, 134, 64, 222, 156, 213, 64, 204, 224, 160, 64, 0, 129, 0, 0, 0, 0, 127, 127, 85, 57, 239, 55, 201, 244, 126, 64, 22, 202, 146, 65, 63, 225, 17, 192, 0, 127, 0, 0, 0, 0, 129, 127, 179, 54, 192, 55, 236, 50, 147, 64, 22, 202, 146, 65, 59, 179, 255, 191, 0, 127, 0, 0, 0, 0, 129, 127, 164, 54, 241, 55, 170, 128, 215, 64, 22, 202, 146, 65, 59, 179, 255, 191, 0, 127, 0, 0, 0, 0, 129, 127, 164, 54, 78, 56, 236, 50, 147, 64, 188, 205, 129, 65, 119, 206, 130, 191, 0, 127, 0, 0, 0, 0, 129, 127, 244, 53, 241, 55, 170, 128, 215, 64, 188, 205, 129, 65, 59, 179, 255, 191, 129, 0, 0, 0, 0, 0, 129, 127, 184, 54, 198, 53, 170, 128, 215, 64, 188, 205, 129, 65, 119, 206, 130, 191, 0, 0, 129, 0, 0, 127, 0, 127, 59, 53, 107, 53, 236, 50, 147, 64, 188, 205, 129, 65, 119, 206, 130, 191, 127, 0, 0, 0, 0, 0, 127, 127, 45, 55, 94, 53, 186, 165, 216, 64, 208, 203, 116, 64, 28, 83, 169, 64, 0, 0, 127, 0, 0, 126, 0, 127, 209, 57, 91, 59, 35, 212, 211, 64, 254, 110, 126, 64, 28, 83, 169, 64, 0, 0, 127, 0, 0, 127, 0, 127, 213, 57, 85, 59, 159, 206, 134, 64, 254, 110, 126, 64, 28, 83, 169, 64, 0, 0, 127, 0, 0, 127, 0, 127, 213, 57, 244, 58, 159, 206, 134, 64, 254, 110, 126, 64, 28, 83, 169, 64, 0, 0, 127, 0, 0, 127, 0, 127, 213, 57, 244, 58, 159, 206, 134, 64, 222, 156, 213, 64, 28, 83, 169, 64, 0, 0, 127, 0, 0, 127, 0, 127, 34, 58, 244, 58, 8, 253, 129, 64, 117, 110, 218, 64, 28, 83, 169, 64, 0, 0, 127, 0, 0, 127, 0, 127, 38, 58, 238, 58, 8, 253, 129, 64, 208, 203, 116, 64, 28, 83, 169, 64, 0, 0, 127, 0, 0, 126, 0, 127, 209, 57, 238, 58, 186, 165, 216, 64, 208, 203, 116, 64, 28, 83, 169, 64, 0, 0, 127, 0, 0, 126, 0, 127, 209, 57, 91, 59, 159, 206, 134, 64, 254, 110, 126, 64, 28, 83, 169, 64, 0, 0, 127, 0, 0, 127, 0, 127, 213, 57, 244, 58, 25, 240, 154, 191, 237, 8, 147, 64, 209, 210, 160, 64, 0, 0, 127, 0, 127, 0, 0, 127, 244, 53, 144, 54, 28, 240, 154, 63, 237, 8, 147, 64, 209, 210, 160, 64, 130, 0, 0, 0, 0, 0, 129, 127, 220, 53, 7, 54, 253, 186, 157, 191, 78, 214, 252, 61, 54, 105, 166, 64, 126, 0, 15, 0, 15, 0, 130, 127, 190, 53, 6, 54, 24, 240, 154, 191, 104, 84, 234, 61, 209, 210, 160, 64, 126, 0, 15, 0, 15, 0, 130, 127, 204, 53, 7, 54, 25, 240, 154, 191, 237, 8, 147, 64, 209, 210, 160, 64, 126, 0, 15, 0, 15, 0, 130, 127, 204, 53, 161, 52, 29, 240, 154, 63, 104, 84, 234, 61, 54, 105, 166, 64, 0, 127, 0, 0, 127, 0, 0, 127, 182, 54, 152, 55, 29, 240, 154, 63, 104, 84, 234, 61, 209, 210, 160, 64, 0, 127, 0, 0, 127, 0, 0, 127, 182, 54, 142, 55, 24, 240, 154, 191, 104, 84, 234, 61, 209, 210, 160, 64, 0, 127, 0, 0, 127, 0, 0, 127, 244, 53, 142, 55, 186, 165, 216, 64, 208, 203, 116, 64, 28, 83, 169, 64, 0, 129, 0, 0, 0, 0, 127, 127, 201, 54, 104, 56, 212, 105, 217, 191, 117, 110, 218, 64, 28, 83, 169, 64, 127, 0, 0, 0, 0, 0, 129, 127, 110, 57, 1, 54, 34, 212, 211, 64, 222, 156, 213, 64, 204, 224, 160, 64, 0, 0, 127, 0, 0, 127, 0, 127, 41, 58, 85, 59, 159, 206, 134, 64, 222, 156, 213, 64, 204, 224, 160, 64, 0, 0, 127, 0, 0, 127, 0, 127, 41, 58, 244, 58, 159, 206, 134, 64, 254, 110, 126, 64, 204, 224, 160, 64, 0, 0, 127, 0, 0, 127, 0, 127, 220, 57, 244, 58, 29, 240, 154, 63, 104, 84, 234, 61, 54, 105, 166, 64, 0, 0, 127, 0, 0, 127, 0, 127, 106, 57, 124, 58, 253, 186, 157, 191, 78, 214, 252, 61, 54, 105, 166, 64, 0, 0, 127, 0, 0, 127, 0, 127, 106, 57, 27, 58, 94, 81, 173, 191, 0, 0, 239, 188, 54, 105, 166, 64, 0, 0, 127, 0, 0, 127, 0, 127, 102, 57, 22, 58, 146, 174, 30, 193, 204, 13, 12, 65, 95, 142, 229, 64, 0, 89, 90, 0, 0, 90, 167, 127, 203, 51, 172, 56, 146, 174, 30, 65, 204, 13, 12, 65, 95, 142, 229, 64, 0, 89, 90, 0, 0, 90, 167, 127, 203, 51, 196, 59, 204, 89, 181, 63, 76, 241, 127, 65, 0, 0, 0, 128, 0, 89, 90, 0, 0, 90, 167, 127, 20, 55, 113, 58, 146, 174, 30, 65, 204, 13, 12, 65, 95, 142, 229, 64, 0, 89, 90, 0, 0, 90, 167, 127, 203, 51, 196, 59, 146, 174, 30, 65, 76, 241, 127, 65, 0, 0, 0, 128, 0, 89, 90, 0, 0, 90, 167, 127, 20, 55, 196, 59, 62, 176, 226, 64, 76, 241, 127, 65, 0, 0, 0, 128, 0, 89, 90, 0, 0, 90, 167, 127, 20, 55, 83, 59, 62, 176, 226, 64, 76, 241, 127, 65, 0, 0, 0, 128, 0, 89, 90, 0, 0, 90, 167, 127, 20, 55, 83, 59, 204, 89, 181, 63, 76, 241, 127, 65, 0, 0, 0, 128, 0, 89, 90, 0, 0, 90, 167, 127, 20, 55, 113, 58, 146, 174, 30, 65, 204, 13, 12, 65, 95, 142, 229, 64, 0, 89, 90, 0, 0, 90, 167, 127, 203, 51, 196, 59, 53, 167, 23, 193, 0, 0, 239, 188, 54, 105, 166, 64, 129, 0, 0, 0, 0, 129, 0, 127, 10, 50, 202, 35, 53, 167, 23, 193, 84, 149, 15, 65, 54, 105, 166, 64, 129, 0, 0, 0, 0, 129, 0, 127, 190, 34, 202, 35, 146, 174, 30, 65, 84, 149, 15, 65, 34, 149, 208, 192, 0, 167, 90, 0, 129, 0, 0, 127, 255, 57, 64, 54, 186, 165, 216, 192, 117, 110, 218, 64, 54, 105, 166, 64, 0, 0, 126, 0, 0, 126, 0, 127, 41, 58, 62, 57, 9, 253, 129, 192, 117, 110, 218, 64, 54, 105, 166, 64, 0, 0, 126, 0, 0, 127, 0, 127, 41, 58, 170, 57, 9, 253, 129, 192, 84, 149, 15, 65, 54, 105, 166, 64, 0, 0, 126, 0, 0, 127, 0, 127, 101, 58, 170, 57, 9, 253, 129, 192, 84, 149, 15, 65, 54, 105, 166, 64, 0, 0, 127, 0, 0, 126, 0, 127, 101, 58, 170, 57, 53, 167, 23, 193, 84, 149, 15, 65, 54, 105, 166, 64, 0, 0, 127, 0, 0, 126, 0, 127, 101, 58, 209, 56, 186, 165, 216, 192, 117, 110, 218, 64, 54, 105, 166, 64, 0, 0, 127, 0, 0, 127, 0, 127, 41, 58, 62, 57, 146, 174, 30, 65, 60, 226, 120, 65, 0, 0, 0, 128, 127, 0, 0, 0, 0, 129, 0, 127, 208, 49, 78, 54, 146, 174, 30, 65, 84, 149, 15, 65, 34, 149, 208, 192, 127, 0, 0, 0, 0, 130, 0, 127, 245, 52, 69, 52, 146, 174, 30, 65, 76, 241, 127, 65, 0, 0, 0, 128, 127, 0, 0, 0, 0, 129, 0, 127, 137, 49, 78, 54, 146, 174, 30, 65, 84, 149, 15, 65, 34, 149, 208, 192, 127, 0, 0, 0, 0, 130, 0, 127, 245, 52, 69, 52, 146, 174, 30, 65, 204, 13, 12, 65, 95, 142, 229, 192, 127, 0, 0, 0, 0, 129, 0, 127, 7, 53, 17, 52, 146, 174, 30, 65, 76, 241, 127, 65, 0, 0, 0, 128, 127, 0, 0, 0, 0, 129, 0, 127, 137, 49, 78, 54, 146, 174, 30, 65, 76, 241, 127, 65, 0, 0, 0, 128, 127, 0, 0, 0, 0, 129, 0, 127, 137, 49, 78, 54, 146, 174, 30, 65, 204, 13, 12, 65, 95, 142, 229, 64, 127, 0, 0, 0, 0, 129, 0, 127, 7, 53, 69, 56, 146, 174, 30, 65, 84, 149, 15, 65, 34, 149, 208, 64, 127, 0, 0, 0, 0, 130, 0, 127, 245, 52, 43, 56, 146, 174, 30, 193, 84, 149, 15, 65, 34, 149, 208, 64, 0, 167, 166, 0, 127, 0, 0, 127, 59, 57, 64, 54, 204, 89, 181, 63, 212, 3, 114, 65, 202, 180, 92, 191, 0, 89, 166, 0, 0, 90, 89, 127, 19, 50, 255, 57, 88, 3, 136, 64, 212, 3, 114, 65, 202, 180, 92, 191, 0, 89, 166, 0, 0, 90, 89, 127, 19, 50, 142, 57, 88, 3, 136, 64, 225, 22, 93, 65, 166, 19, 10, 192, 0, 89, 166, 0, 0, 90, 89, 127, 237, 48, 142, 57, 62, 176, 226, 64, 225, 22, 93, 65, 166, 19, 10, 192, 0, 89, 166, 0, 0, 90, 89, 127, 237, 48, 29, 57, 62, 176, 226, 64, 212, 3, 114, 65, 202, 180, 92, 191, 0, 89, 166, 0, 0, 90, 89, 127, 19, 50, 29, 57, 146, 174, 30, 65, 76, 241, 127, 65, 0, 0, 0, 128, 0, 89, 166, 0, 0, 90, 89, 127, 214, 50, 172, 56, 62, 176, 226, 64, 212, 3, 114, 65, 202, 180, 92, 191, 0, 89, 166, 0, 0, 90, 89, 127, 19, 50, 29, 57, 62, 176, 226, 64, 76, 241, 127, 65, 0, 0, 0, 128, 0, 89, 166, 0, 0, 90, 89, 127, 214, 50, 29, 57, 146, 174, 30, 65, 76, 241, 127, 65, 0, 0, 0, 128, 0, 89, 166, 0, 0, 90, 89, 127, 214, 50, 172, 56, 146, 174, 30, 65, 204, 13, 12, 65, 95, 142, 229, 192, 0, 89, 166, 0, 0, 90, 89, 127, 162, 35, 172, 56, 146, 174, 30, 193, 204, 13, 12, 65, 95, 142, 229, 192, 0, 89, 166, 0, 0, 90, 89, 127, 162, 35, 196, 59, 88, 3, 136, 64, 225, 22, 93, 65, 166, 19, 10, 192, 0, 89, 166, 0, 0, 90, 89, 127, 237, 48, 142, 57, 146, 174, 30, 193, 204, 13, 12, 65, 95, 142, 229, 192, 0, 89, 166, 0, 0, 90, 89, 127, 162, 35, 196, 59, 146, 174, 30, 193, 76, 241, 127, 65, 0, 0, 0, 128, 0, 89, 166, 0, 0, 90, 89, 127, 214, 50, 196, 59, 204, 89, 181, 63, 212, 3, 114, 65, 202, 180, 92, 191, 0, 89, 166, 0, 0, 90, 89, 127, 19, 50, 255, 57, 88, 3, 136, 64, 225, 22, 93, 65, 166, 19, 10, 192, 0, 89, 166, 0, 0, 90, 89, 127, 237, 48, 142, 57, 146, 174, 30, 193, 204, 13, 12, 65, 95, 142, 229, 192, 0, 89, 166, 0, 0, 90, 89, 127, 162, 35, 196, 59, 204, 89, 181, 63, 212, 3, 114, 65, 202, 180, 92, 191, 0, 89, 166, 0, 0, 90, 89, 127, 19, 50, 255, 57, 146, 174, 30, 193, 76, 241, 127, 65, 0, 0, 0, 128, 0, 89, 166, 0, 0, 90, 89, 127, 214, 50, 196, 59, 204, 89, 181, 63, 76, 241, 127, 65, 0, 0, 0, 128, 0, 89, 166, 0, 0, 90, 89, 127, 214, 50, 255, 57, 204, 89, 181, 63, 212, 3, 114, 65, 202, 180, 92, 191, 0, 89, 166, 0, 0, 90, 89, 127, 19, 50, 255, 57, 62, 176, 226, 64, 225, 22, 93, 65, 166, 19, 10, 192, 0, 89, 166, 0, 0, 90, 89, 127, 237, 48, 29, 57, 146, 174, 30, 65, 76, 241, 127, 65, 0, 0, 0, 128, 0, 89, 166, 0, 0, 90, 89, 127, 214, 50, 172, 56, 146, 174, 30, 65, 204, 13, 12, 65, 95, 142, 229, 192, 0, 89, 166, 0, 0, 90, 89, 127, 162, 35, 172, 56, 146, 174, 30, 65, 60, 226, 120, 65, 0, 0, 0, 128, 0, 167, 166, 0, 127, 0, 0, 127, 36, 58, 126, 56, 35, 212, 211, 64, 254, 110, 126, 64, 28, 83, 169, 64, 0, 127, 0, 0, 0, 0, 129, 127, 213, 57, 85, 59, 170, 110, 233, 191, 63, 109, 214, 64, 224, 253, 162, 64, 129, 0, 0, 0, 0, 0, 129, 127, 216, 54, 22, 55, 50, 57, 235, 64, 155, 187, 141, 65, 103, 126, 61, 191, 0, 129, 0, 0, 0, 0, 127, 127, 92, 54, 104, 54, 62, 176, 226, 64, 155, 187, 141, 65, 202, 180, 92, 191, 0, 129, 0, 0, 0, 0, 127, 127, 83, 54, 83, 54, 62, 176, 226, 64, 155, 187, 141, 65, 166, 19, 10, 192, 0, 129, 0, 0, 0, 0, 127, 127, 247, 53, 83, 54, 88, 3, 136, 64, 155, 187, 141, 65, 166, 19, 10, 192, 0, 129, 0, 0, 0, 0, 127, 127, 247, 53, 112, 53, 88, 3, 136, 64, 155, 187, 141, 65, 202, 180, 92, 191, 0, 129, 0, 0, 0, 0, 126, 127, 83, 54, 112, 53, 201, 244, 126, 64, 155, 187, 141, 65, 63, 225, 17, 192, 0, 129, 0, 0, 0, 0, 127, 127, 238, 53, 91, 53, 88, 3, 136, 64, 155, 187, 141, 65, 202, 180, 92, 191, 0, 129, 0, 0, 0, 0, 126, 127, 83, 54, 112, 53, 201, 244, 126, 64, 155, 187, 141, 65, 103, 126, 61, 191, 0, 129, 0, 0, 0, 0, 127, 127, 92, 54, 91, 53, 201, 244, 126, 64, 155, 187, 141, 65, 63, 225, 17, 192, 0, 129, 0, 0, 0, 0, 127, 127, 238, 53, 91, 53, 50, 57, 235, 64, 155, 187, 141, 65, 63, 225, 17, 192, 0, 129, 0, 0, 0, 0, 127, 127, 238, 53, 104, 54, 50, 57, 235, 64, 155, 187, 141, 65, 103, 126, 61, 191, 0, 129, 0, 0, 0, 0, 127, 127, 92, 54, 104, 54, 62, 176, 226, 64, 155, 187, 141, 65, 166, 19, 10, 192, 0, 129, 0, 0, 0, 0, 127, 127, 247, 53, 83, 54, 50, 57, 235, 64, 155, 187, 141, 65, 63, 225, 17, 192, 0, 129, 0, 0, 0, 0, 127, 127, 238, 53, 104, 54, 62, 176, 226, 64, 155, 187, 141, 65, 166, 19, 10, 192, 0, 129, 0, 0, 0, 0, 127, 127, 247, 53, 83, 54, 201, 244, 126, 64, 155, 187, 141, 65, 63, 225, 17, 192, 0, 129, 0, 0, 0, 0, 127, 127, 238, 53, 91, 53, 8, 253, 129, 64, 208, 203, 116, 64, 28, 83, 169, 64, 129, 0, 0, 0, 0, 0, 129, 127, 103, 57, 188, 55, 170, 110, 233, 191, 63, 109, 214, 64, 224, 253, 162, 64, 0, 0, 127, 0, 0, 126, 0, 127, 218, 53, 98, 56, 132, 164, 212, 192, 63, 109, 214, 64, 224, 253, 162, 64, 0, 0, 127, 0, 0, 127, 0, 127, 218, 53, 67, 55, 132, 164, 212, 192, 60, 206, 124, 64, 224, 253, 162, 64, 0, 0, 127, 0, 0, 126, 0, 127, 62, 53, 67, 55, 212, 105, 217, 191, 117, 110, 218, 64, 28, 83, 169, 64, 0, 127, 0, 0, 0, 0, 129, 127, 38, 58, 8, 58, 212, 105, 217, 191, 117, 110, 218, 64, 54, 105, 166, 64, 0, 127, 0, 0, 0, 0, 129, 127, 41, 58, 8, 58, 9, 253, 129, 192, 117, 110, 218, 64, 54, 105, 166, 64, 0, 127, 0, 0, 0, 0, 129, 127, 41, 58, 170, 57, 9, 253, 129, 192, 117, 110, 218, 64, 54, 105, 166, 64, 0, 127, 0, 0, 0, 0, 129, 127, 41, 58, 170, 57, 186, 165, 216, 192, 117, 110, 218, 64, 54, 105, 166, 64, 0, 127, 0, 0, 0, 0, 129, 127, 41, 58, 62, 57, 186, 165, 216, 192, 117, 110, 218, 64, 28, 83, 169, 64, 0, 127, 0, 0, 0, 0, 130, 127, 38, 58, 62, 57, 186, 165, 216, 192, 208, 203, 116, 64, 28, 83, 169, 64, 0, 129, 0, 0, 0, 0, 127, 127, 229, 53, 115, 53, 186, 165, 216, 192, 208, 203, 116, 64, 54, 105, 166, 64, 0, 129, 0, 0, 0, 0, 127, 127, 223, 53, 115, 53, 8, 253, 129, 192, 208, 203, 116, 64, 28, 83, 169, 64, 0, 129, 0, 0, 0, 0, 127, 127, 229, 53, 75, 54, 186, 165, 216, 192, 208, 203, 116, 64, 54, 105, 166, 64, 0, 130, 0, 0, 0, 0, 127, 127, 223, 53, 115, 53, 209, 105, 217, 191, 208, 203, 116, 64, 54, 105, 166, 64, 0, 130, 0, 0, 0, 0, 127, 127, 223, 53, 8, 55, 8, 253, 129, 192, 208, 203, 116, 64, 28, 83, 169, 64, 0, 130, 0, 0, 0, 0, 127, 127, 229, 53, 75, 54, 50, 57, 235, 64, 22, 202, 146, 65, 103, 126, 61, 191, 0, 127, 0, 0, 0, 0, 129, 127, 93, 54, 102, 56, 50, 57, 235, 64, 22, 202, 146, 65, 63, 225, 17, 192, 0, 127, 0, 0, 0, 0, 129, 127, 179, 54, 102, 56, 170, 128, 215, 64, 22, 202, 146, 65, 119, 206, 130, 191, 0, 127, 0, 0, 0, 0, 129, 127, 109, 54, 78, 56, 50, 57, 235, 64, 22, 202, 146, 65, 63, 225, 17, 192, 0, 127, 0, 0, 0, 0, 129, 127, 179, 54, 102, 56, 170, 128, 215, 64, 22, 202, 146, 65, 59, 179, 255, 191, 0, 127, 0, 0, 0, 0, 129, 127, 164, 54, 78, 56, 170, 128, 215, 64, 22, 202, 146, 65, 119, 206, 130, 191, 0, 127, 0, 0, 0, 0, 129, 127, 109, 54, 78, 56, 236, 50, 147, 64, 22, 202, 146, 65, 59, 179, 255, 191, 0, 127, 0, 0, 0, 0, 129, 127, 164, 54, 241, 55, 201, 244, 126, 64, 22, 202, 146, 65, 63, 225, 17, 192, 0, 127, 0, 0, 0, 0, 129, 127, 179, 54, 192, 55, 236, 50, 147, 64, 22, 202, 146, 65, 119, 206, 130, 191, 0, 127, 0, 0, 0, 0, 129, 127, 109, 54, 241, 55, 201, 244, 126, 64, 22, 202, 146, 65, 63, 225, 17, 192, 0, 126, 0, 0, 0, 0, 129, 127, 179, 54, 192, 55, 201, 244, 126, 64, 22, 202, 146, 65, 103, 126, 61, 191, 0, 126, 0, 0, 0, 0, 129, 127, 93, 54, 192, 55, 236, 50, 147, 64, 22, 202, 146, 65, 119, 206, 130, 191, 0, 126, 0, 0, 0, 0, 129, 127, 109, 54, 241, 55, 50, 57, 235, 64, 22, 202, 146, 65, 103, 126, 61, 191, 0, 127, 0, 0, 0, 0, 129, 127, 93, 54, 102, 56, 170, 128, 215, 64, 22, 202, 146, 65, 119, 206, 130, 191, 0, 127, 0, 0, 0, 0, 129, 127, 109, 54, 78, 56, 201, 244, 126, 64, 22, 202, 146, 65, 103, 126, 61, 191, 0, 127, 0, 0, 0, 0, 129, 127, 93, 54, 192, 55, 132, 164, 212, 192, 60, 206, 124, 64, 28, 83, 169, 64, 0, 0, 127, 0, 0, 126, 0, 127, 212, 57, 67, 57, 186, 165, 216, 192, 208, 203, 116, 64, 28, 83, 169, 64, 0, 0, 127, 0, 0, 126, 0, 127, 209, 57, 62, 57, 8, 253, 129, 192, 208, 203, 116, 64, 28, 83, 169, 64, 0, 0, 127, 0, 0, 127, 0, 127, 209, 57, 170, 57, 167, 110, 233, 191, 58, 206, 124, 64, 28, 83, 169, 64, 0, 0, 127, 0, 0, 127, 0, 127, 212, 57, 3, 58, 8, 253, 129, 192, 60, 206, 124, 64, 28, 83, 169, 64, 0, 0, 127, 0, 0, 127, 0, 127, 212, 57, 170, 57, 8, 253, 129, 192, 208, 203, 116, 64, 28, 83, 169, 64, 0, 0, 127, 0, 0, 127, 0, 127, 209, 57, 170, 57, 186, 165, 216, 192, 117, 110, 218, 64, 28, 83, 169, 64, 0, 0, 127, 0, 0, 126, 0, 127, 38, 58, 62, 57, 186, 165, 216, 192, 208, 203, 116, 64, 28, 83, 169, 64, 0, 0, 127, 0, 0, 126, 0, 127, 209, 57, 62, 57, 132, 164, 212, 192, 60, 206, 124, 64, 28, 83, 169, 64, 0, 0, 127, 0, 0, 126, 0, 127, 212, 57, 67, 57, 186, 165, 216, 192, 117, 110, 218, 64, 28, 83, 169, 64, 0, 0, 127, 0, 0, 126, 0, 127, 38, 58, 62, 57, 132, 164, 212, 192, 60, 206, 124, 64, 28, 83, 169, 64, 0, 0, 127, 0, 0, 126, 0, 127, 212, 57, 67, 57, 132, 164, 212, 192, 63, 109, 214, 64, 28, 83, 169, 64, 0, 0, 127, 0, 0, 127, 0, 127, 34, 58, 67, 57, 167, 110, 233, 191, 58, 206, 124, 64, 28, 83, 169, 64, 0, 0, 127, 0, 0, 127, 0, 127, 212, 57, 3, 58, 8, 253, 129, 192, 208, 203, 116, 64, 28, 83, 169, 64, 0, 0, 127, 0, 0, 127, 0, 127, 209, 57, 170, 57, 209, 105, 217, 191, 208, 203, 116, 64, 28, 83, 169, 64, 0, 0, 127, 0, 0, 127, 0, 127, 209, 57, 8, 58, 186, 165, 216, 192, 117, 110, 218, 64, 28, 83, 169, 64, 0, 0, 127, 0, 0, 126, 0, 127, 38, 58, 62, 57, 132, 164, 212, 192, 63, 109, 214, 64, 28, 83, 169, 64, 0, 0, 127, 0, 0, 127, 0, 127, 34, 58, 67, 57, 212, 105, 217, 191, 117, 110, 218, 64, 28, 83, 169, 64, 0, 0, 127, 0, 0, 127, 0, 127, 38, 58, 8, 58, 132, 164, 212, 192, 63, 109, 214, 64, 28, 83, 169, 64, 0, 0, 127, 0, 0, 127, 0, 127, 34, 58, 67, 57, 170, 110, 233, 191, 63, 109, 214, 64, 28, 83, 169, 64, 0, 0, 127, 0, 0, 127, 0, 127, 34, 58, 3, 58, 212, 105, 217, 191, 117, 110, 218, 64, 28, 83, 169, 64, 0, 0, 127, 0, 0, 127, 0, 127, 38, 58, 8, 58, 170, 110, 233, 191, 63, 109, 214, 64, 28, 83, 169, 64, 0, 0, 127, 0, 0, 127, 0, 127, 34, 58, 3, 58, 167, 110, 233, 191, 58, 206, 124, 64, 28, 83, 169, 64, 0, 0, 127, 0, 0, 127, 0, 127, 212, 57, 3, 58, 209, 105, 217, 191, 208, 203, 116, 64, 28, 83, 169, 64, 0, 0, 127, 0, 0, 127, 0, 127, 209, 57, 8, 58, 8, 253, 129, 64, 117, 110, 218, 64, 28, 83, 169, 64, 0, 0, 127, 0, 0, 127, 0, 127, 38, 58, 238, 58, 159, 206, 134, 64, 222, 156, 213, 64, 28, 83, 169, 64, 0, 0, 127, 0, 0, 127, 0, 127, 34, 58, 244, 58, 34, 212, 211, 64, 222, 156, 213, 64, 28, 83, 169, 64, 0, 0, 127, 0, 0, 127, 0, 127, 34, 58, 85, 59, 34, 212, 211, 64, 222, 156, 213, 64, 28, 83, 169, 64, 0, 0, 127, 0, 0, 127, 0, 127, 34, 58, 85, 59, 35, 212, 211, 64, 254, 110, 126, 64, 28, 83, 169, 64, 0, 0, 127, 0, 0, 127, 0, 127, 213, 57, 85, 59, 185, 165, 216, 64, 117, 110, 218, 64, 28, 83, 169, 64, 0, 0, 127, 0, 0, 127, 0, 127, 38, 58, 91, 59, 35, 212, 211, 64, 254, 110, 126, 64, 28, 83, 169, 64, 0, 0, 127, 0, 0, 127, 0, 127, 213, 57, 85, 59, 186, 165, 216, 64, 208, 203, 116, 64, 28, 83, 169, 64, 0, 0, 127, 0, 0, 126, 0, 127, 209, 57, 91, 59, 185, 165, 216, 64, 117, 110, 218, 64, 28, 83, 169, 64, 0, 0, 127, 0, 0, 127, 0, 127, 38, 58, 91, 59, 8, 253, 129, 64, 117, 110, 218, 64, 28, 83, 169, 64, 0, 127, 0, 0, 0, 0, 129, 127, 38, 58, 238, 58, 185, 165, 216, 64, 117, 110, 218, 64, 28, 83, 169, 64, 127, 0, 0, 0, 0, 0, 129, 127, 106, 57, 1, 54, 186, 165, 216, 192, 208, 203, 116, 64, 28, 83, 169, 64, 129, 0, 0, 0, 0, 0, 129, 127, 107, 57, 188, 55 ),
"array_index_data": PoolByteArray( 0, 0, 2, 0, 1, 0, 3, 0, 5, 0, 4, 0, 6, 0, 8, 0, 7, 0, 9, 0, 11, 0, 10, 0, 12, 0, 14, 0, 13, 0, 10, 0, 16, 0, 15, 0, 17, 0, 19, 0, 18, 0, 20, 0, 22, 0, 21, 0, 23, 0, 25, 0, 24, 0, 7, 0, 27, 0, 26, 0, 28, 0, 30, 0, 29, 0, 31, 0, 33, 0, 32, 0, 34, 0, 36, 0, 35, 0, 37, 0, 35, 0, 38, 0, 39, 0, 38, 0, 40, 0, 41, 0, 42, 0, 40, 0, 43, 0, 45, 0, 44, 0, 27, 0, 43, 0, 46, 0, 47, 0, 49, 0, 48, 0, 50, 0, 48, 0, 51, 0, 52, 0, 54, 0, 53, 0, 55, 0, 56, 0, 53, 0, 57, 0, 55, 0, 58, 0, 16, 0, 57, 0, 59, 0, 60, 0, 62, 0, 61, 0, 63, 0, 65, 0, 64, 0, 66, 0, 68, 0, 67, 0, 69, 0, 71, 0, 70, 0, 72, 0, 74, 0, 73, 0, 75, 0, 77, 0, 76, 0, 78, 0, 80, 0, 79, 0, 81, 0, 83, 0, 82, 0, 84, 0, 86, 0, 85, 0, 87, 0, 89, 0, 88, 0, 90, 0, 92, 0, 91, 0, 93, 0, 95, 0, 94, 0, 96, 0, 98, 0, 97, 0, 99, 0, 101, 0, 100, 0, 102, 0, 104, 0, 103, 0, 105, 0, 107, 0, 106, 0, 108, 0, 110, 0, 109, 0, 111, 0, 113, 0, 112, 0, 114, 0, 116, 0, 115, 0, 117, 0, 119, 0, 118, 0, 120, 0, 122, 0, 121, 0, 123, 0, 125, 0, 124, 0, 126, 0, 128, 0, 127, 0, 129, 0, 131, 0, 130, 0, 132, 0, 134, 0, 133, 0, 135, 0, 137, 0, 136, 0, 138, 0, 140, 0, 139, 0, 141, 0, 143, 0, 142, 0, 144, 0, 146, 0, 145, 0, 147, 0, 149, 0, 148, 0, 150, 0, 152, 0, 151, 0, 153, 0, 155, 0, 154, 0, 156, 0, 158, 0, 157, 0, 159, 0, 161, 0, 160, 0, 162, 0, 164, 0, 163, 0, 165, 0, 167, 0, 166, 0, 168, 0, 170, 0, 169, 0, 171, 0, 173, 0, 172, 0, 174, 0, 176, 0, 175, 0, 177, 0, 179, 0, 178, 0, 180, 0, 182, 0, 181, 0, 183, 0, 185, 0, 184, 0, 186, 0, 188, 0, 187, 0, 189, 0, 191, 0, 190, 0, 192, 0, 51, 0, 54, 0, 193, 0, 195, 0, 194, 0, 45, 0, 41, 0, 196, 0, 197, 0, 199, 0, 198, 0, 200, 0, 202, 0, 201, 0, 203, 0, 205, 0, 204, 0, 206, 0, 208, 0, 207, 0, 209, 0, 211, 0, 210, 0, 212, 0, 214, 0, 213, 0, 215, 0, 217, 0, 216, 0, 218, 0, 220, 0, 219, 0, 221, 0, 223, 0, 222, 0, 224, 0, 226, 0, 225, 0, 227, 0, 229, 0, 228, 0, 230, 0, 232, 0, 231, 0, 233, 0, 235, 0, 234, 0, 236, 0, 238, 0, 237, 0, 239, 0, 241, 0, 240, 0, 242, 0, 244, 0, 243, 0, 245, 0, 247, 0, 246, 0, 248, 0, 250, 0, 249, 0, 250, 0, 5, 0, 3, 0, 6, 0, 7, 0, 47, 0, 9, 0, 10, 0, 34, 0, 251, 0, 253, 0, 252, 0, 254, 0, 0, 1, 255, 0, 1, 1, 3, 1, 2, 1, 10, 0, 15, 0, 4, 1, 5, 1, 7, 1, 6, 1, 8, 1, 10, 1, 9, 1, 9, 1, 10, 1, 11, 1, 12, 1, 14, 1, 13, 1, 15, 1, 17, 1, 16, 1, 18, 1, 20, 1, 19, 1, 21, 1, 23, 1, 22, 1, 24, 1, 26, 1, 25, 1, 7, 0, 26, 0, 27, 1, 28, 0, 29, 0, 28, 1, 29, 1, 31, 1, 30, 1, 32, 1, 34, 1, 33, 1, 35, 1, 37, 1, 36, 1, 38, 1, 40, 1, 39, 1, 41, 1, 43, 1, 42, 1, 44, 1, 46, 1, 45, 1, 47, 1, 49, 1, 48, 1, 50, 1, 52, 1, 51, 1, 34, 0, 35, 0, 37, 0, 37, 0, 38, 0, 39, 0, 39, 0, 40, 0, 42, 0, 41, 0, 40, 0, 196, 0, 43, 0, 44, 0, 46, 0, 27, 0, 46, 0, 26, 0, 47, 0, 48, 0, 50, 0, 50, 0, 51, 0, 192, 0, 52, 0, 53, 0, 56, 0, 55, 0, 53, 0, 58, 0, 57, 0, 58, 0, 59, 0, 16, 0, 59, 0, 15, 0, 53, 1, 55, 1, 54, 1, 56, 1, 58, 1, 57, 1, 63, 0, 64, 0, 59, 1, 66, 0, 67, 0, 60, 1, 61, 1, 63, 1, 62, 1, 64, 1, 66, 1, 65, 1, 67, 1, 69, 1, 68, 1, 70, 1, 72, 1, 71, 1, 73, 1, 75, 1, 74, 1, 76, 1, 78, 1, 77, 1, 79, 1, 81, 1, 80, 1, 82, 1, 84, 1, 83, 1, 85, 1, 87, 1, 86, 1, 88, 1, 90, 1, 89, 1, 91, 1, 93, 1, 92, 1, 94, 1, 96, 1, 95, 1, 97, 1, 99, 1, 98, 1, 100, 1, 102, 1, 101, 1, 103, 1, 105, 1, 104, 1, 106, 1, 108, 1, 107, 1, 109, 1, 111, 1, 110, 1, 112, 1, 114, 1, 113, 1, 75, 0, 76, 0, 115, 1, 78, 0, 79, 0, 116, 1, 81, 0, 82, 0, 117, 1, 118, 1, 120, 1, 119, 1, 121, 1, 123, 1, 122, 1, 124, 1, 126, 1, 125, 1, 127, 1, 129, 1, 128, 1, 130, 1, 132, 1, 131, 1, 133, 1, 135, 1, 134, 1, 136, 1, 138, 1, 137, 1, 139, 1, 141, 1, 140, 1, 142, 1, 144, 1, 143, 1, 145, 1, 147, 1, 146, 1, 148, 1, 150, 1, 149, 1, 151, 1, 153, 1, 152, 1, 154, 1, 156, 1, 155, 1, 157, 1, 159, 1, 158, 1, 160, 1, 162, 1, 161, 1, 163, 1, 165, 1, 164, 1, 166, 1, 168, 1, 167, 1, 169, 1, 171, 1, 170, 1, 172, 1, 174, 1, 173, 1, 173, 1, 176, 1, 175, 1, 177, 1, 179, 1, 178, 1, 180, 1, 182, 1, 181, 1, 183, 1, 185, 1, 184, 1, 186, 1, 188, 1, 187, 1, 189, 1, 191, 1, 190, 1, 192, 1, 194, 1, 193, 1, 195, 1, 197, 1, 196, 1, 102, 0, 103, 0, 198, 1, 105, 0, 106, 0, 199, 1, 200, 1, 202, 1, 201, 1, 111, 0, 112, 0, 203, 1, 114, 0, 115, 0, 204, 1, 117, 0, 118, 0, 205, 1, 120, 0, 121, 0, 206, 1, 123, 0, 124, 0, 207, 1, 126, 0, 127, 0, 208, 1, 209, 1, 211, 1, 210, 1, 132, 0, 133, 0, 212, 1, 135, 0, 136, 0, 213, 1, 138, 0, 139, 0, 214, 1, 141, 0, 142, 0, 215, 1, 216, 1, 218, 1, 217, 1, 219, 1, 221, 1, 220, 1, 222, 1, 224, 1, 223, 1, 147, 0, 148, 0, 225, 1, 150, 0, 151, 0, 226, 1, 227, 1, 229, 1, 228, 1, 230, 1, 232, 1, 231, 1, 159, 0, 160, 0, 233, 1, 162, 0, 163, 0, 234, 1, 235, 1, 237, 1, 236, 1, 238, 1, 240, 1, 239, 1, 241, 1, 243, 1, 242, 1, 244, 1, 246, 1, 245, 1, 247, 1, 249, 1, 248, 1, 176, 0, 174, 0, 250, 1, 174, 0, 175, 0, 251, 1, 177, 0, 178, 0, 252, 1, 253, 1, 255, 1, 254, 1, 0, 2, 2, 2, 1, 2, 3, 2, 5, 2, 4, 2, 6, 2, 8, 2, 7, 2, 9, 2, 11, 2, 10, 2, 186, 0, 187, 0, 12, 2, 13, 2, 15, 2, 14, 2, 16, 2, 18, 2, 17, 2, 19, 2, 21, 2, 20, 2, 22, 2, 24, 2, 23, 2, 25, 2, 27, 2, 26, 2, 28, 2, 30, 2, 29, 2, 31, 2, 33, 2, 32, 2, 34, 2, 36, 2, 35, 2, 192, 0, 54, 0, 52, 0, 193, 0, 194, 0, 37, 2, 45, 0, 196, 0, 44, 0, 197, 0, 198, 0, 38, 2, 200, 0, 201, 0, 39, 2, 40, 2, 42, 2, 41, 2, 43, 2, 45, 2, 44, 2, 46, 2, 48, 2, 47, 2, 49, 2, 51, 2, 50, 2, 52, 2, 54, 2, 53, 2, 206, 0, 207, 0, 55, 2, 56, 2, 58, 2, 57, 2, 59, 2, 61, 2, 60, 2, 62, 2, 64, 2, 63, 2, 65, 2, 67, 2, 66, 2, 68, 2, 70, 2, 69, 2, 71, 2, 73, 2, 72, 2, 74, 2, 76, 2, 75, 2, 77, 2, 79, 2, 78, 2, 80, 2, 82, 2, 81, 2, 83, 2, 85, 2, 84, 2, 86, 2, 88, 2, 87, 2, 89, 2, 91, 2, 90, 2, 92, 2, 94, 2, 93, 2, 95, 2, 97, 2, 96, 2, 98, 2, 100, 2, 99, 2, 101, 2, 103, 2, 102, 2, 104, 2, 106, 2, 105, 2, 107, 2, 109, 2, 108, 2, 110, 2, 112, 2, 111, 2, 113, 2, 115, 2, 114, 2, 116, 2, 118, 2, 117, 2, 230, 0, 231, 0, 119, 2, 233, 0, 234, 0, 120, 2, 236, 0, 237, 0, 121, 2 ),
"blend_shape_data": [  ],
"format": 97559,
"index_count": 774,
"primitive": 4,
"skeleton_aabb": [  ],
"vertex_count": 634
}

[sub_resource type="BoxShape" id=2]
extents = Vector3( 9.64182, 3.70328, 5.4796 )

[node name="House2" type="StaticBody"]

[node name="House2" type="MeshInstance" parent="."]
use_in_baked_light = true
mesh = SubResource( 1 )
material/0 = ExtResource( 1 )

[node name="CollisionShape" type="CollisionShape" parent="."]
transform = Transform( 1, 0, 0, 0, 1, 0, 0, 0, 1, 0, 3.68943, 0 )
shape = SubResource( 2 )
