[gd_scene load_steps=4 format=2]

[ext_resource path="res://models/environment/Decorations/Trees/Tree2Material.tres" type="Material" id=1]

[sub_resource type="ArrayMesh" id=1]
resource_name = "Tree2"
surfaces/0 = {
"aabb": AABB( -3.30062, -0.115344, -3.794, 6.64027, 9.24367, 7.65046 ),
"array_data": PoolByteArray( 168, 139, 80, 63, 52, 155, 28, 189, 228, 86, 13, 191, 67, 251, 149, 0, 151, 21, 190, 127, 164, 53, 109, 54, 110, 103, 90, 188, 234, 59, 138, 189, 56, 163, 125, 191, 67, 251, 149, 0, 151, 22, 190, 127, 5, 54, 148, 54, 27, 111, 162, 62, 154, 171, 246, 63, 240, 125, 117, 191, 67, 251, 149, 0, 151, 21, 190, 127, 5, 54, 254, 52, 186, 115, 160, 63, 130, 175, 249, 63, 88, 233, 154, 190, 67, 251, 149, 0, 151, 21, 190, 127, 119, 53, 211, 52, 155, 230, 107, 63, 148, 247, 160, 188, 86, 29, 11, 63, 124, 232, 249, 0, 249, 3, 130, 127, 199, 52, 99, 54, 168, 139, 80, 63, 52, 155, 28, 189, 228, 86, 13, 191, 124, 232, 249, 0, 249, 3, 130, 127, 164, 53, 109, 54, 186, 115, 160, 63, 130, 175, 249, 63, 88, 233, 154, 190, 124, 232, 249, 0, 249, 3, 130, 127, 119, 53, 211, 52, 116, 40, 161, 63, 34, 10, 241, 63, 158, 203, 26, 63, 124, 232, 249, 0, 249, 3, 130, 127, 193, 52, 221, 52, 158, 107, 42, 61, 112, 129, 237, 59, 113, 132, 129, 63, 61, 241, 110, 0, 106, 229, 193, 127, 249, 57, 47, 58, 155, 230, 107, 63, 148, 247, 160, 188, 86, 29, 11, 63, 61, 241, 110, 0, 107, 231, 193, 127, 92, 58, 34, 58, 116, 40, 161, 63, 34, 10, 241, 63, 158, 203, 26, 63, 61, 241, 110, 0, 106, 227, 193, 127, 92, 58, 145, 57, 10, 242, 177, 62, 28, 107, 248, 63, 110, 252, 145, 63, 61, 241, 110, 0, 105, 226, 193, 127, 243, 57, 159, 57, 183, 214, 6, 191, 230, 149, 249, 63, 43, 27, 38, 63, 194, 2, 110, 0, 99, 56, 55, 127, 184, 57, 118, 57, 112, 246, 97, 191, 118, 57, 236, 189, 132, 169, 246, 62, 194, 2, 110, 0, 98, 57, 55, 127, 189, 57, 13, 58, 158, 107, 42, 61, 112, 129, 237, 59, 113, 132, 129, 63, 194, 2, 110, 0, 99, 57, 55, 127, 249, 57, 47, 58, 10, 242, 177, 62, 28, 107, 248, 63, 110, 252, 145, 63, 194, 2, 110, 0, 99, 56, 55, 127, 243, 57, 159, 57, 221, 112, 29, 189, 120, 43, 208, 64, 86, 65, 199, 63, 59, 56, 97, 0, 99, 23, 182, 127, 3, 59, 34, 50, 118, 197, 165, 63, 225, 79, 207, 64, 54, 166, 66, 63, 59, 56, 97, 0, 99, 23, 182, 127, 155, 59, 175, 50, 32, 128, 158, 61, 158, 13, 18, 65, 168, 45, 52, 189, 59, 56, 97, 0, 99, 23, 182, 127, 155, 59, 244, 43, 244, 2, 100, 191, 172, 254, 56, 189, 19, 236, 24, 191, 131, 21, 1, 0, 7, 49, 140, 127, 67, 53, 244, 54, 112, 246, 97, 191, 118, 57, 236, 189, 132, 169, 246, 62, 131, 21, 1, 0, 7, 49, 140, 127, 205, 52, 59, 55, 183, 214, 6, 191, 230, 149, 249, 63, 43, 27, 38, 63, 131, 21, 1, 0, 6, 49, 140, 127, 192, 52, 96, 56, 173, 239, 8, 191, 180, 13, 250, 63, 88, 98, 189, 190, 131, 21, 1, 0, 6, 49, 140, 127, 49, 53, 57, 56, 27, 111, 162, 62, 154, 171, 246, 63, 240, 125, 117, 191, 195, 17, 147, 0, 108, 237, 193, 127, 1, 54, 66, 56, 110, 103, 90, 188, 234, 59, 138, 189, 56, 163, 125, 191, 195, 17, 147, 0, 106, 230, 192, 127, 1, 54, 23, 55, 244, 2, 100, 191, 172, 254, 56, 189, 19, 236, 24, 191, 195, 17, 147, 0, 107, 233, 192, 127, 67, 53, 244, 54, 173, 239, 8, 191, 180, 13, 250, 63, 88, 98, 189, 190, 195, 17, 147, 0, 108, 240, 193, 127, 49, 53, 57, 56, 112, 246, 97, 191, 118, 57, 236, 189, 132, 169, 246, 62, 3, 130, 1, 0, 126, 3, 251, 127, 228, 56, 46, 44, 244, 2, 100, 191, 172, 254, 56, 189, 19, 236, 24, 191, 3, 130, 1, 0, 126, 3, 247, 127, 236, 56, 133, 47, 110, 103, 90, 188, 234, 59, 138, 189, 56, 163, 125, 191, 3, 130, 1, 0, 126, 3, 249, 127, 71, 57, 67, 48, 158, 107, 42, 61, 112, 129, 237, 59, 113, 132, 129, 63, 3, 130, 1, 0, 126, 3, 250, 127, 57, 57, 249, 40, 168, 139, 80, 63, 52, 155, 28, 189, 228, 86, 13, 191, 3, 130, 1, 0, 126, 3, 249, 127, 149, 57, 14, 47, 155, 230, 107, 63, 148, 247, 160, 188, 86, 29, 11, 63, 3, 130, 1, 0, 126, 3, 248, 127, 149, 57, 112, 43, 48, 151, 22, 188, 186, 48, 209, 64, 139, 19, 190, 191, 197, 56, 159, 0, 54, 175, 176, 127, 209, 59, 183, 52, 209, 94, 176, 191, 86, 164, 208, 64, 184, 52, 42, 191, 197, 56, 159, 0, 54, 175, 176, 127, 98, 59, 158, 51, 32, 128, 158, 61, 158, 13, 18, 65, 168, 45, 52, 189, 197, 56, 159, 0, 54, 175, 176, 127, 211, 58, 234, 53, 61, 249, 170, 191, 146, 40, 211, 64, 108, 236, 74, 63, 204, 61, 97, 0, 105, 69, 13, 127, 206, 58, 152, 48, 221, 112, 29, 189, 120, 43, 208, 64, 86, 65, 199, 63, 204, 61, 97, 0, 105, 69, 13, 127, 3, 59, 34, 50, 32, 128, 158, 61, 158, 13, 18, 65, 168, 45, 52, 189, 204, 61, 97, 0, 105, 69, 13, 127, 155, 59, 244, 43, 118, 197, 165, 63, 225, 79, 207, 64, 54, 166, 66, 63, 115, 51, 252, 0, 239, 47, 116, 127, 242, 59, 230, 58, 246, 64, 161, 63, 168, 14, 206, 64, 24, 24, 33, 191, 115, 51, 252, 0, 239, 47, 116, 127, 110, 59, 19, 59, 32, 128, 158, 61, 158, 13, 18, 65, 168, 45, 52, 189, 115, 51, 252, 0, 239, 47, 116, 127, 242, 59, 229, 59, 209, 94, 176, 191, 86, 164, 208, 64, 184, 52, 42, 191, 146, 61, 0, 0, 254, 251, 130, 127, 98, 59, 158, 51, 61, 249, 170, 191, 146, 40, 211, 64, 108, 236, 74, 63, 146, 61, 0, 0, 254, 251, 130, 127, 252, 58, 166, 51, 32, 128, 158, 61, 158, 13, 18, 65, 168, 45, 52, 189, 146, 61, 0, 0, 254, 251, 130, 127, 211, 58, 234, 53, 246, 64, 161, 63, 168, 14, 206, 64, 24, 24, 33, 191, 67, 50, 162, 0, 74, 154, 255, 127, 209, 59, 115, 53, 48, 151, 22, 188, 186, 48, 209, 64, 139, 19, 190, 191, 67, 50, 162, 0, 74, 154, 255, 127, 209, 59, 183, 52, 32, 128, 158, 61, 158, 13, 18, 65, 168, 45, 52, 189, 67, 50, 162, 0, 74, 154, 255, 127, 211, 58, 234, 53, 27, 111, 162, 62, 154, 171, 246, 63, 240, 125, 117, 191, 250, 130, 13, 0, 130, 5, 253, 127, 213, 49, 212, 57, 240, 150, 121, 189, 140, 97, 210, 63, 243, 208, 114, 192, 250, 130, 13, 0, 130, 5, 253, 127, 97, 50, 199, 56, 196, 188, 85, 64, 14, 45, 214, 63, 216, 183, 246, 191, 250, 130, 13, 0, 130, 5, 253, 127, 91, 40, 111, 57, 186, 115, 160, 63, 130, 175, 249, 63, 88, 233, 154, 190, 250, 130, 13, 0, 130, 5, 253, 127, 96, 48, 15, 58, 64, 113, 50, 63, 181, 222, 128, 64, 205, 15, 123, 191, 46, 83, 173, 0, 202, 193, 162, 127, 148, 54, 247, 55, 196, 188, 85, 64, 14, 45, 214, 63, 216, 183, 246, 191, 46, 83, 173, 0, 202, 192, 161, 127, 242, 55, 17, 57, 240, 150, 121, 189, 140, 97, 210, 63, 243, 208, 114, 192, 46, 83, 173, 0, 202, 192, 161, 127, 171, 56, 69, 56, 147, 117, 203, 189, 41, 218, 129, 64, 91, 193, 188, 191, 46, 83, 173, 0, 201, 193, 162, 127, 231, 54, 157, 55, 128, 201, 147, 57, 137, 224, 77, 64, 73, 203, 55, 192, 219, 151, 59, 0, 138, 45, 7, 127, 143, 48, 46, 52, 209, 164, 26, 64, 92, 35, 75, 64, 165, 62, 188, 191, 219, 151, 59, 0, 138, 45, 6, 127, 116, 38, 52, 53, 64, 113, 50, 63, 181, 222, 128, 64, 205, 15, 123, 191, 219, 151, 59, 0, 138, 45, 7, 127, 89, 47, 117, 53, 147, 117, 203, 189, 41, 218, 129, 64, 91, 193, 188, 191, 219, 151, 59, 0, 139, 47, 10, 127, 234, 48, 24, 53, 69, 196, 91, 63, 142, 136, 171, 64, 9, 198, 170, 60, 50, 85, 178, 0, 186, 91, 53, 127, 39, 58, 63, 49, 209, 164, 26, 64, 92, 35, 75, 64, 165, 62, 188, 191, 50, 85, 178, 0, 193, 92, 59, 127, 251, 56, 63, 49, 128, 201, 147, 57, 137, 224, 77, 64, 73, 203, 55, 192, 50, 85, 178, 0, 191, 92, 58, 127, 5, 57, 24, 52, 95, 102, 140, 62, 222, 124, 174, 64, 165, 7, 191, 190, 50, 85, 178, 0, 180, 89, 48, 127, 43, 58, 225, 49, 195, 241, 201, 187, 145, 188, 149, 64, 141, 230, 34, 192, 231, 139, 39, 0, 214, 46, 110, 127, 0, 57, 151, 55, 200, 202, 9, 64, 252, 71, 151, 64, 53, 109, 168, 191, 231, 139, 39, 0, 213, 46, 110, 127, 4, 57, 189, 56, 69, 196, 91, 63, 142, 136, 171, 64, 9, 198, 170, 60, 231, 139, 39, 0, 215, 46, 110, 127, 173, 57, 119, 56, 95, 102, 140, 62, 222, 124, 174, 64, 165, 7, 191, 190, 231, 139, 39, 0, 217, 46, 111, 127, 165, 57, 48, 56, 200, 202, 9, 64, 252, 71, 151, 64, 53, 109, 168, 191, 45, 84, 173, 0, 107, 9, 67, 127, 242, 49, 108, 38, 195, 241, 201, 187, 145, 188, 149, 64, 141, 230, 34, 192, 45, 84, 173, 0, 107, 9, 67, 127, 129, 46, 59, 40, 177, 22, 235, 189, 78, 203, 221, 64, 208, 2, 157, 190, 45, 84, 173, 0, 107, 9, 67, 127, 104, 49, 132, 49, 78, 113, 157, 62, 104, 128, 222, 64, 68, 93, 145, 189, 45, 84, 173, 0, 107, 9, 67, 127, 242, 49, 121, 49, 48, 151, 22, 188, 186, 48, 209, 64, 139, 19, 190, 191, 225, 141, 41, 0, 192, 236, 149, 127, 111, 53, 173, 46, 246, 64, 161, 63, 168, 14, 206, 64, 24, 24, 33, 191, 225, 141, 41, 0, 191, 236, 149, 127, 93, 52, 165, 44, 78, 113, 157, 62, 104, 128, 222, 64, 68, 93, 145, 189, 225, 141, 41, 0, 192, 236, 149, 127, 124, 52, 14, 48, 177, 22, 235, 189, 78, 203, 221, 64, 208, 2, 157, 190, 225, 141, 41, 0, 194, 235, 148, 127, 204, 52, 111, 48, 183, 214, 6, 191, 230, 149, 249, 63, 43, 27, 38, 63, 14, 130, 0, 0, 131, 242, 248, 127, 34, 51, 116, 58, 101, 61, 83, 192, 76, 91, 210, 63, 144, 206, 243, 63, 14, 130, 0, 0, 131, 242, 248, 127, 174, 53, 1, 59, 191, 216, 81, 192, 126, 145, 210, 63, 105, 161, 250, 191, 14, 130, 0, 0, 131, 242, 248, 127, 174, 53, 135, 57, 173, 239, 8, 191, 180, 13, 250, 63, 88, 98, 189, 190, 14, 130, 0, 0, 131, 242, 248, 127, 40, 51, 16, 58, 191, 216, 81, 192, 126, 145, 210, 63, 105, 161, 250, 191, 166, 88, 0, 0, 200, 199, 158, 127, 171, 56, 162, 53, 101, 61, 83, 192, 76, 91, 210, 63, 144, 206, 243, 63, 166, 88, 0, 0, 200, 199, 158, 127, 243, 55, 27, 52, 120, 98, 105, 191, 237, 244, 129, 64, 98, 120, 101, 61, 166, 88, 0, 0, 200, 199, 158, 127, 132, 54, 118, 54, 172, 135, 116, 191, 182, 239, 128, 64, 20, 245, 122, 191, 166, 88, 0, 0, 200, 199, 158, 127, 235, 54, 214, 54, 120, 98, 105, 191, 237, 244, 129, 64, 98, 120, 101, 61, 61, 145, 255, 0, 146, 196, 238, 127, 48, 50, 72, 54, 80, 51, 31, 192, 239, 245, 73, 64, 53, 162, 179, 63, 61, 145, 255, 0, 146, 196, 238, 127, 56, 52, 132, 55, 100, 140, 31, 192, 22, 7, 77, 64, 207, 99, 184, 191, 61, 145, 255, 0, 146, 196, 238, 127, 56, 52, 86, 53, 172, 135, 116, 191, 182, 239, 128, 64, 20, 245, 122, 191, 61, 145, 255, 0, 146, 196, 239, 127, 61, 50, 127, 53, 100, 140, 31, 192, 22, 7, 77, 64, 207, 99, 184, 191, 163, 85, 0, 0, 3, 2, 126, 127, 206, 57, 182, 53, 80, 51, 31, 192, 239, 245, 73, 64, 53, 162, 179, 63, 163, 85, 0, 0, 3, 2, 126, 127, 140, 58, 205, 53, 96, 226, 242, 190, 121, 88, 172, 64, 102, 11, 46, 63, 163, 85, 0, 0, 3, 2, 126, 127, 142, 58, 241, 50, 134, 199, 208, 190, 39, 186, 173, 64, 36, 113, 128, 187, 163, 85, 0, 0, 3, 3, 126, 127, 95, 58, 200, 50, 96, 226, 242, 190, 121, 88, 172, 64, 102, 11, 46, 63, 49, 139, 0, 0, 195, 231, 108, 127, 37, 58, 30, 56, 214, 231, 16, 192, 141, 239, 148, 64, 242, 153, 168, 63, 49, 139, 0, 0, 196, 232, 108, 127, 189, 58, 93, 55, 175, 231, 9, 192, 85, 173, 149, 64, 150, 151, 168, 191, 49, 139, 0, 0, 196, 231, 108, 127, 209, 57, 138, 54, 134, 199, 208, 190, 39, 186, 173, 64, 36, 113, 128, 187, 49, 139, 0, 0, 194, 230, 107, 127, 230, 57, 5, 56, 175, 231, 9, 192, 85, 173, 149, 64, 150, 151, 168, 191, 152, 72, 253, 0, 70, 100, 223, 127, 88, 37, 237, 47, 214, 231, 16, 192, 141, 239, 148, 64, 242, 153, 168, 63, 152, 72, 253, 0, 70, 100, 223, 127, 133, 36, 212, 50, 188, 0, 24, 191, 112, 28, 224, 64, 97, 179, 223, 62, 152, 72, 253, 0, 70, 99, 221, 127, 233, 48, 186, 50, 183, 21, 25, 191, 212, 247, 223, 64, 152, 49, 96, 189, 152, 72, 253, 0, 69, 99, 220, 127, 228, 48, 52, 50, 61, 249, 170, 191, 146, 40, 211, 64, 108, 236, 74, 63, 63, 146, 3, 0, 194, 218, 153, 127, 126, 52, 249, 50, 209, 94, 176, 191, 86, 164, 208, 64, 184, 52, 42, 191, 63, 146, 3, 0, 194, 217, 153, 127, 111, 53, 216, 49, 183, 21, 25, 191, 212, 247, 223, 64, 152, 49, 96, 189, 63, 146, 3, 0, 194, 218, 153, 127, 215, 52, 74, 49, 188, 0, 24, 191, 112, 28, 224, 64, 97, 179, 223, 62, 63, 146, 3, 0, 195, 218, 152, 127, 133, 52, 175, 49, 196, 188, 85, 64, 14, 45, 214, 63, 216, 183, 246, 191, 242, 130, 255, 0, 130, 14, 255, 127, 91, 40, 111, 57, 111, 1, 85, 64, 92, 42, 217, 63, 156, 86, 245, 63, 242, 130, 255, 0, 130, 14, 254, 127, 81, 40, 230, 58, 116, 40, 161, 63, 34, 10, 241, 63, 158, 203, 26, 63, 242, 130, 255, 0, 130, 14, 255, 127, 88, 48, 106, 58, 186, 115, 160, 63, 130, 175, 249, 63, 88, 233, 154, 190, 242, 130, 255, 0, 130, 14, 0, 127, 96, 48, 15, 58, 111, 1, 85, 64, 92, 42, 217, 63, 156, 86, 245, 63, 85, 93, 254, 0, 164, 85, 13, 127, 169, 54, 178, 58, 196, 188, 85, 64, 14, 45, 214, 63, 216, 183, 246, 191, 85, 93, 254, 0, 164, 85, 11, 127, 171, 54, 197, 59, 64, 113, 50, 63, 181, 222, 128, 64, 205, 15, 123, 191, 85, 93, 254, 0, 164, 85, 17, 127, 182, 56, 153, 59, 251, 95, 72, 63, 228, 144, 130, 64, 78, 88, 130, 61, 85, 93, 254, 0, 165, 84, 23, 127, 177, 56, 85, 59, 64, 113, 50, 63, 181, 222, 128, 64, 205, 15, 123, 191, 199, 143, 5, 0, 144, 57, 10, 127, 89, 47, 117, 53, 209, 164, 26, 64, 92, 35, 75, 64, 165, 62, 188, 191, 199, 143, 5, 0, 144, 57, 9, 127, 116, 38, 52, 53, 254, 91, 28, 64, 121, 13, 80, 64, 231, 207, 174, 63, 199, 143, 5, 0, 144, 57, 10, 127, 106, 38, 90, 55, 251, 95, 72, 63, 228, 144, 130, 64, 78, 88, 130, 61, 199, 143, 5, 0, 144, 57, 12, 127, 30, 47, 63, 54, 254, 91, 28, 64, 121, 13, 80, 64, 231, 207, 174, 63, 102, 74, 252, 0, 74, 154, 253, 127, 190, 59, 68, 57, 209, 164, 26, 64, 92, 35, 75, 64, 165, 62, 188, 191, 102, 74, 252, 0, 74, 154, 253, 127, 190, 59, 39, 56, 69, 196, 91, 63, 142, 136, 171, 64, 9, 198, 170, 60, 102, 74, 252, 0, 74, 154, 253, 127, 8, 59, 182, 56, 100, 92, 87, 63, 55, 44, 175, 64, 36, 187, 40, 63, 102, 74, 252, 0, 74, 154, 254, 127, 255, 58, 246, 56, 69, 196, 91, 63, 142, 136, 171, 64, 9, 198, 170, 60, 195, 145, 1, 0, 207, 28, 113, 127, 173, 57, 119, 56, 200, 202, 9, 64, 252, 71, 151, 64, 53, 109, 168, 191, 195, 145, 1, 0, 209, 27, 114, 127, 4, 57, 189, 56, 42, 251, 9, 64, 179, 240, 148, 64, 149, 219, 159, 63, 195, 145, 1, 0, 207, 28, 113, 127, 229, 57, 47, 57, 100, 92, 87, 63, 55, 44, 175, 64, 36, 187, 40, 63, 195, 145, 1, 0, 204, 30, 111, 127, 228, 57, 142, 56, 68, 42, 201, 62, 250, 188, 221, 64, 255, 227, 247, 62, 99, 79, 0, 0, 0, 0, 126, 127, 16, 58, 123, 59, 42, 251, 9, 64, 179, 240, 148, 64, 149, 219, 159, 63, 99, 79, 0, 0, 2, 254, 126, 127, 136, 58, 105, 58, 200, 202, 9, 64, 252, 71, 151, 64, 53, 109, 168, 191, 99, 79, 0, 0, 1, 255, 126, 127, 205, 57, 105, 58, 78, 113, 157, 62, 104, 128, 222, 64, 68, 93, 145, 189, 99, 79, 0, 0, 0, 1, 126, 127, 234, 57, 131, 59, 78, 113, 157, 62, 104, 128, 222, 64, 68, 93, 145, 189, 198, 144, 4, 0, 193, 28, 151, 127, 124, 52, 14, 48, 246, 64, 161, 63, 168, 14, 206, 64, 24, 24, 33, 191, 198, 144, 4, 0, 193, 28, 151, 127, 93, 52, 165, 44, 118, 197, 165, 63, 225, 79, 207, 64, 54, 166, 66, 63, 198, 144, 4, 0, 193, 28, 151, 127, 236, 50, 206, 46, 68, 42, 201, 62, 250, 188, 221, 64, 255, 227, 247, 62, 198, 144, 4, 0, 193, 28, 151, 127, 23, 52, 100, 48, 123, 229, 57, 187, 68, 122, 216, 63, 54, 208, 118, 64, 7, 130, 245, 0, 130, 249, 250, 127, 59, 50, 177, 59, 101, 61, 83, 192, 76, 91, 210, 63, 144, 206, 243, 63, 7, 130, 245, 0, 130, 249, 249, 127, 174, 53, 1, 59, 183, 214, 6, 191, 230, 149, 249, 63, 43, 27, 38, 63, 7, 130, 245, 0, 130, 249, 250, 127, 34, 51, 116, 58, 10, 242, 177, 62, 28, 107, 248, 63, 110, 252, 145, 63, 7, 130, 245, 0, 130, 249, 250, 127, 197, 49, 160, 58, 120, 98, 105, 191, 237, 244, 129, 64, 98, 120, 101, 61, 214, 96, 70, 0, 147, 0, 192, 127, 58, 57, 14, 59, 101, 61, 83, 192, 76, 91, 210, 63, 144, 206, 243, 63, 214, 96, 70, 0, 147, 0, 192, 127, 110, 57, 156, 57, 123, 229, 57, 187, 68, 122, 216, 63, 54, 208, 118, 64, 214, 96, 70, 0, 147, 0, 192, 127, 98, 56, 156, 57, 239, 132, 192, 189, 72, 108, 129, 64, 150, 132, 4, 63, 214, 96, 70, 0, 147, 0, 192, 127, 246, 56, 14, 59, 66, 188, 134, 189, 119, 115, 75, 64, 5, 129, 48, 64, 25, 141, 211, 0, 132, 232, 247, 127, 177, 48, 62, 56, 80, 51, 31, 192, 239, 245, 73, 64, 53, 162, 179, 63, 25, 141, 211, 0, 132, 232, 247, 127, 56, 52, 132, 55, 120, 98, 105, 191, 237, 244, 129, 64, 98, 120, 101, 61, 25, 141, 211, 0, 132, 232, 247, 127, 48, 50, 72, 54, 239, 132, 192, 189, 72, 108, 129, 64, 150, 132, 4, 63, 25, 141, 211, 0, 132, 233, 246, 127, 234, 48, 158, 54, 96, 226, 242, 190, 121, 88, 172, 64, 102, 11, 46, 63, 204, 73, 88, 0, 84, 91, 231, 127, 71, 56, 211, 36, 80, 51, 31, 192, 239, 245, 73, 64, 53, 162, 179, 63, 204, 73, 88, 0, 81, 92, 228, 127, 127, 54, 211, 36, 66, 188, 134, 189, 119, 115, 75, 64, 5, 129, 48, 64, 204, 73, 88, 0, 82, 92, 229, 127, 186, 54, 80, 47, 191, 61, 70, 62, 12, 229, 174, 64, 144, 236, 137, 63, 204, 73, 88, 0, 86, 90, 233, 127, 82, 56, 127, 41, 180, 178, 27, 60, 249, 86, 148, 64, 118, 245, 34, 64, 31, 145, 204, 0, 194, 195, 91, 127, 189, 58, 171, 56, 214, 231, 16, 192, 141, 239, 148, 64, 242, 153, 168, 63, 31, 145, 204, 0, 195, 195, 92, 127, 189, 58, 93, 55, 96, 226, 242, 190, 121, 88, 172, 64, 102, 11, 46, 63, 31, 145, 204, 0, 194, 195, 91, 127, 37, 58, 30, 56, 191, 61, 70, 62, 12, 229, 174, 64, 144, 236, 137, 63, 31, 145, 204, 0, 192, 195, 90, 127, 39, 58, 104, 56, 214, 231, 16, 192, 141, 239, 148, 64, 242, 153, 168, 63, 206, 70, 93, 0, 189, 156, 38, 127, 56, 59, 217, 59, 180, 178, 27, 60, 249, 86, 148, 64, 118, 245, 34, 64, 206, 70, 93, 0, 189, 156, 38, 127, 58, 59, 29, 59, 70, 109, 85, 189, 10, 19, 224, 64, 224, 41, 65, 63, 206, 70, 93, 0, 189, 156, 38, 127, 48, 58, 165, 59, 188, 0, 24, 191, 112, 28, 224, 64, 97, 179, 223, 62, 206, 70, 93, 0, 189, 156, 39, 127, 46, 58, 210, 59, 70, 109, 85, 189, 10, 19, 224, 64, 224, 41, 65, 63, 31, 151, 194, 0, 195, 42, 154, 127, 26, 52, 54, 49, 221, 112, 29, 189, 120, 43, 208, 64, 86, 65, 199, 63, 31, 151, 194, 0, 196, 42, 154, 127, 242, 50, 216, 49, 61, 249, 170, 191, 146, 40, 211, 64, 108, 236, 74, 63, 31, 151, 194, 0, 194, 42, 154, 127, 126, 52, 249, 50, 188, 0, 24, 191, 112, 28, 224, 64, 97, 179, 223, 62, 31, 151, 194, 0, 192, 40, 155, 127, 133, 52, 175, 49, 191, 216, 81, 192, 126, 145, 210, 63, 105, 161, 250, 191, 6, 130, 12, 0, 130, 249, 250, 127, 174, 53, 135, 57, 240, 150, 121, 189, 140, 97, 210, 63, 243, 208, 114, 192, 6, 130, 12, 0, 130, 249, 249, 127, 97, 50, 199, 56, 27, 111, 162, 62, 154, 171, 246, 63, 240, 125, 117, 191, 6, 130, 12, 0, 130, 249, 250, 127, 213, 49, 212, 57, 173, 239, 8, 191, 180, 13, 250, 63, 88, 98, 189, 190, 6, 130, 12, 0, 130, 249, 250, 127, 40, 51, 16, 58, 240, 150, 121, 189, 140, 97, 210, 63, 243, 208, 114, 192, 208, 81, 172, 0, 216, 159, 186, 127, 171, 56, 69, 56, 191, 216, 81, 192, 126, 145, 210, 63, 105, 161, 250, 191, 208, 81, 172, 0, 216, 159, 186, 127, 171, 56, 162, 53, 172, 135, 116, 191, 182, 239, 128, 64, 20, 245, 122, 191, 208, 81, 172, 0, 216, 159, 186, 127, 235, 54, 214, 54, 147, 117, 203, 189, 41, 218, 129, 64, 91, 193, 188, 191, 208, 81, 172, 0, 216, 159, 186, 127, 231, 54, 157, 55, 172, 135, 116, 191, 182, 239, 128, 64, 20, 245, 122, 191, 37, 153, 63, 0, 142, 205, 240, 127, 61, 50, 127, 53, 100, 140, 31, 192, 22, 7, 77, 64, 207, 99, 184, 191, 37, 153, 63, 0, 141, 205, 241, 127, 56, 52, 86, 53, 128, 201, 147, 57, 137, 224, 77, 64, 73, 203, 55, 192, 37, 153, 63, 0, 142, 204, 240, 127, 143, 48, 46, 52, 147, 117, 203, 189, 41, 218, 129, 64, 91, 193, 188, 191, 37, 153, 63, 0, 143, 203, 238, 127, 234, 48, 24, 53, 128, 201, 147, 57, 137, 224, 77, 64, 73, 203, 55, 192, 212, 91, 180, 0, 213, 63, 100, 127, 5, 57, 24, 52, 100, 140, 31, 192, 22, 7, 77, 64, 207, 99, 184, 191, 212, 91, 180, 0, 213, 63, 100, 127, 206, 57, 182, 53, 134, 199, 208, 190, 39, 186, 173, 64, 36, 113, 128, 187, 212, 91, 180, 0, 213, 63, 100, 127, 95, 58, 200, 50, 95, 102, 140, 62, 222, 124, 174, 64, 165, 7, 191, 190, 212, 91, 180, 0, 213, 63, 100, 127, 43, 58, 225, 49, 134, 199, 208, 190, 39, 186, 173, 64, 36, 113, 128, 187, 22, 138, 38, 0, 207, 27, 113, 127, 230, 57, 5, 56, 175, 231, 9, 192, 85, 173, 149, 64, 150, 151, 168, 191, 22, 138, 38, 0, 207, 27, 113, 127, 209, 57, 138, 54, 195, 241, 201, 187, 145, 188, 149, 64, 141, 230, 34, 192, 22, 138, 38, 0, 207, 27, 113, 127, 0, 57, 151, 55, 95, 102, 140, 62, 222, 124, 174, 64, 165, 7, 191, 190, 22, 138, 38, 0, 207, 27, 113, 127, 165, 57, 48, 56, 177, 22, 235, 189, 78, 203, 221, 64, 208, 2, 157, 190, 210, 80, 170, 0, 103, 72, 12, 127, 104, 49, 132, 49, 195, 241, 201, 187, 145, 188, 149, 64, 141, 230, 34, 192, 210, 80, 170, 0, 103, 72, 12, 127, 129, 46, 59, 40, 175, 231, 9, 192, 85, 173, 149, 64, 150, 151, 168, 191, 210, 80, 170, 0, 103, 72, 12, 127, 88, 37, 237, 47, 183, 21, 25, 191, 212, 247, 223, 64, 152, 49, 96, 189, 210, 80, 170, 0, 103, 72, 12, 127, 228, 48, 52, 50, 209, 94, 176, 191, 86, 164, 208, 64, 184, 52, 42, 191, 24, 141, 47, 0, 197, 204, 158, 127, 111, 53, 216, 49, 48, 151, 22, 188, 186, 48, 209, 64, 139, 19, 190, 191, 24, 141, 47, 0, 197, 204, 158, 127, 111, 53, 173, 46, 177, 22, 235, 189, 78, 203, 221, 64, 208, 2, 157, 190, 24, 141, 47, 0, 197, 204, 158, 127, 204, 52, 111, 48, 183, 21, 25, 191, 212, 247, 223, 64, 152, 49, 96, 189, 24, 141, 47, 0, 197, 204, 157, 127, 215, 52, 74, 49, 116, 40, 161, 63, 34, 10, 241, 63, 158, 203, 26, 63, 249, 130, 246, 0, 130, 7, 253, 127, 88, 48, 106, 58, 111, 1, 85, 64, 92, 42, 217, 63, 156, 86, 245, 63, 249, 130, 246, 0, 130, 7, 253, 127, 81, 40, 230, 58, 123, 229, 57, 187, 68, 122, 216, 63, 54, 208, 118, 64, 249, 130, 246, 0, 130, 7, 253, 127, 59, 50, 177, 59, 10, 242, 177, 62, 28, 107, 248, 63, 110, 252, 145, 63, 249, 130, 246, 0, 130, 7, 254, 127, 197, 49, 160, 58, 239, 132, 192, 189, 72, 108, 129, 64, 150, 132, 4, 63, 38, 98, 70, 0, 145, 57, 237, 127, 246, 56, 14, 59, 123, 229, 57, 187, 68, 122, 216, 63, 54, 208, 118, 64, 38, 98, 70, 0, 145, 57, 238, 127, 98, 56, 156, 57, 111, 1, 85, 64, 92, 42, 217, 63, 156, 86, 245, 63, 38, 98, 70, 0, 145, 57, 237, 127, 169, 54, 178, 58, 251, 95, 72, 63, 228, 144, 130, 64, 78, 88, 130, 61, 38, 98, 70, 0, 145, 57, 237, 127, 177, 56, 85, 59, 254, 91, 28, 64, 121, 13, 80, 64, 231, 207, 174, 63, 235, 140, 211, 0, 131, 22, 1, 127, 106, 38, 90, 55, 66, 188, 134, 189, 119, 115, 75, 64, 5, 129, 48, 64, 235, 140, 211, 0, 131, 22, 1, 127, 177, 48, 62, 56, 239, 132, 192, 189, 72, 108, 129, 64, 150, 132, 4, 63, 235, 140, 211, 0, 131, 22, 1, 127, 234, 48, 158, 54, 251, 95, 72, 63, 228, 144, 130, 64, 78, 88, 130, 61, 235, 140, 211, 0, 131, 22, 1, 127, 30, 47, 63, 54, 191, 61, 70, 62, 12, 229, 174, 64, 144, 236, 137, 63, 52, 65, 94, 0, 68, 66, 172, 127, 82, 56, 127, 41, 66, 188, 134, 189, 119, 115, 75, 64, 5, 129, 48, 64, 52, 65, 94, 0, 68, 66, 172, 127, 186, 54, 80, 47, 254, 91, 28, 64, 121, 13, 80, 64, 231, 207, 174, 63, 52, 65, 94, 0, 68, 66, 172, 127, 68, 56, 89, 50, 100, 92, 87, 63, 55, 44, 175, 64, 36, 187, 40, 63, 52, 65, 94, 0, 68, 66, 172, 127, 145, 56, 35, 44, 42, 251, 9, 64, 179, 240, 148, 64, 149, 219, 159, 63, 219, 153, 194, 0, 194, 217, 103, 127, 229, 57, 47, 57, 180, 178, 27, 60, 249, 86, 148, 64, 118, 245, 34, 64, 219, 153, 194, 0, 195, 216, 103, 127, 189, 58, 171, 56, 191, 61, 70, 62, 12, 229, 174, 64, 144, 236, 137, 63, 219, 153, 194, 0, 194, 217, 103, 127, 39, 58, 104, 56, 100, 92, 87, 63, 55, 44, 175, 64, 36, 187, 40, 63, 219, 153, 194, 0, 194, 217, 103, 127, 228, 57, 142, 56, 180, 178, 27, 60, 249, 86, 148, 64, 118, 245, 34, 64, 55, 71, 89, 0, 207, 182, 90, 127, 58, 59, 29, 59, 42, 251, 9, 64, 179, 240, 148, 64, 149, 219, 159, 63, 55, 71, 89, 0, 207, 182, 90, 127, 136, 58, 105, 58, 68, 42, 201, 62, 250, 188, 221, 64, 255, 227, 247, 62, 55, 71, 89, 0, 207, 182, 90, 127, 16, 58, 123, 59, 70, 109, 85, 189, 10, 19, 224, 64, 224, 41, 65, 63, 55, 71, 89, 0, 207, 182, 90, 127, 48, 58, 165, 59, 68, 42, 201, 62, 250, 188, 221, 64, 255, 227, 247, 62, 216, 151, 198, 0, 202, 70, 166, 127, 23, 52, 100, 48, 118, 197, 165, 63, 225, 79, 207, 64, 54, 166, 66, 63, 216, 151, 198, 0, 202, 70, 166, 127, 236, 50, 206, 46, 221, 112, 29, 189, 120, 43, 208, 64, 86, 65, 199, 63, 216, 151, 198, 0, 202, 70, 166, 127, 242, 50, 216, 49, 70, 109, 85, 189, 10, 19, 224, 64, 224, 41, 65, 63, 216, 151, 198, 0, 202, 70, 166, 127, 26, 52, 54, 49 ),
"array_index_data": PoolByteArray( 0, 0, 2, 0, 1, 0, 3, 0, 2, 0, 0, 0, 4, 0, 6, 0, 5, 0, 7, 0, 6, 0, 4, 0, 8, 0, 10, 0, 9, 0, 11, 0, 10, 0, 8, 0, 12, 0, 14, 0, 13, 0, 12, 0, 15, 0, 14, 0, 16, 0, 18, 0, 17, 0, 19, 0, 21, 0, 20, 0, 22, 0, 21, 0, 19, 0, 23, 0, 25, 0, 24, 0, 23, 0, 26, 0, 25, 0, 27, 0, 29, 0, 28, 0, 30, 0, 29, 0, 27, 0, 30, 0, 31, 0, 29, 0, 30, 0, 32, 0, 31, 0, 33, 0, 35, 0, 34, 0, 36, 0, 38, 0, 37, 0, 39, 0, 41, 0, 40, 0, 42, 0, 44, 0, 43, 0, 45, 0, 47, 0, 46, 0, 48, 0, 50, 0, 49, 0, 48, 0, 51, 0, 50, 0, 52, 0, 54, 0, 53, 0, 52, 0, 55, 0, 54, 0, 56, 0, 58, 0, 57, 0, 59, 0, 58, 0, 56, 0, 60, 0, 62, 0, 61, 0, 60, 0, 63, 0, 62, 0, 64, 0, 66, 0, 65, 0, 67, 0, 66, 0, 64, 0, 68, 0, 70, 0, 69, 0, 71, 0, 70, 0, 68, 0, 72, 0, 74, 0, 73, 0, 75, 0, 74, 0, 72, 0, 76, 0, 78, 0, 77, 0, 76, 0, 79, 0, 78, 0, 80, 0, 82, 0, 81, 0, 83, 0, 82, 0, 80, 0, 84, 0, 86, 0, 85, 0, 84, 0, 87, 0, 86, 0, 88, 0, 90, 0, 89, 0, 91, 0, 90, 0, 88, 0, 92, 0, 94, 0, 93, 0, 92, 0, 95, 0, 94, 0, 96, 0, 98, 0, 97, 0, 99, 0, 98, 0, 96, 0, 100, 0, 102, 0, 101, 0, 103, 0, 102, 0, 100, 0, 104, 0, 106, 0, 105, 0, 107, 0, 106, 0, 104, 0, 108, 0, 110, 0, 109, 0, 111, 0, 110, 0, 108, 0, 112, 0, 114, 0, 113, 0, 112, 0, 115, 0, 114, 0, 116, 0, 118, 0, 117, 0, 119, 0, 118, 0, 116, 0, 120, 0, 122, 0, 121, 0, 120, 0, 123, 0, 122, 0, 124, 0, 126, 0, 125, 0, 124, 0, 127, 0, 126, 0, 128, 0, 130, 0, 129, 0, 128, 0, 131, 0, 130, 0, 132, 0, 134, 0, 133, 0, 135, 0, 134, 0, 132, 0, 136, 0, 138, 0, 137, 0, 136, 0, 139, 0, 138, 0, 140, 0, 142, 0, 141, 0, 143, 0, 142, 0, 140, 0, 144, 0, 146, 0, 145, 0, 144, 0, 147, 0, 146, 0, 148, 0, 150, 0, 149, 0, 151, 0, 150, 0, 148, 0, 152, 0, 154, 0, 153, 0, 155, 0, 154, 0, 152, 0, 156, 0, 158, 0, 157, 0, 156, 0, 159, 0, 158, 0, 160, 0, 162, 0, 161, 0, 163, 0, 162, 0, 160, 0, 164, 0, 166, 0, 165, 0, 167, 0, 166, 0, 164, 0, 168, 0, 170, 0, 169, 0, 168, 0, 171, 0, 170, 0, 172, 0, 174, 0, 173, 0, 175, 0, 174, 0, 172, 0, 176, 0, 178, 0, 177, 0, 176, 0, 179, 0, 178, 0, 180, 0, 182, 0, 181, 0, 180, 0, 183, 0, 182, 0, 184, 0, 186, 0, 185, 0, 187, 0, 186, 0, 184, 0, 188, 0, 190, 0, 189, 0, 188, 0, 191, 0, 190, 0, 192, 0, 194, 0, 193, 0, 192, 0, 195, 0, 194, 0, 196, 0, 198, 0, 197, 0, 199, 0, 198, 0, 196, 0, 200, 0, 202, 0, 201, 0, 200, 0, 203, 0, 202, 0, 204, 0, 206, 0, 205, 0, 207, 0, 206, 0, 204, 0, 208, 0, 210, 0, 209, 0, 211, 0, 210, 0, 208, 0, 212, 0, 214, 0, 213, 0, 212, 0, 215, 0, 214, 0 ),
"blend_shape_data": [  ],
"format": 97559,
"index_count": 318,
"primitive": 4,
"skeleton_aabb": [  ],
"vertex_count": 216
}

[sub_resource type="CylinderShape" id=2]
radius = 4.93533
height = 5.23948

[node name="Tree2" type="Spatial"]

[node name="Tree2" type="MeshInstance" parent="."]
transform = Transform( 1.5, 0, 0, 0, 1.5, 0, 0, 0, 1.5, 0, 0, 0 )
mesh = SubResource( 1 )
material/0 = ExtResource( 1 )

[node name="StaticBody" type="StaticBody" parent="."]
collision_layer = 0

[node name="CollisionShape" type="CollisionShape" parent="StaticBody"]
transform = Transform( 1, 0, 0, 0, 1, 0, 0, 0, 1, 0, 2.66821, 0 )
shape = SubResource( 2 )
